Using hadoop executable /usr/bin/hadoop
Using seal jar /home/ubuntu/.virtualenvs/master/local/lib/python2.7/site-packages/seal/seal.jar
13/05/10 12:53:31 WARN mapred.JobClient: Use GenericOptionsParser for parsing the arguments. Applications should implement Tool for the same.
13/05/10 12:53:32 INFO input.FileInputFormat: Total input paths to process : 2
13/05/10 12:53:32 INFO mapred.JobClient: Running job: job_201305071141_0007
13/05/10 12:53:33 INFO mapred.JobClient:  map 0% reduce 0%
13/05/10 12:54:06 INFO mapred.JobClient:  map 1% reduce 0%
13/05/10 12:54:12 INFO mapred.JobClient:  map 2% reduce 0%
13/05/10 12:54:23 INFO mapred.JobClient:  map 3% reduce 0%
13/05/10 12:54:26 INFO mapred.JobClient:  map 4% reduce 0%
13/05/10 12:54:30 INFO mapred.JobClient:  map 5% reduce 0%
13/05/10 12:55:19 INFO mapred.JobClient:  map 6% reduce 0%
13/05/10 12:55:34 INFO mapred.JobClient:  map 7% reduce 0%
13/05/10 12:55:41 INFO mapred.JobClient:  map 8% reduce 0%
13/05/10 12:55:47 INFO mapred.JobClient:  map 9% reduce 0%
13/05/10 12:55:52 INFO mapred.JobClient:  map 10% reduce 0%
13/05/10 12:55:54 INFO mapred.JobClient:  map 10% reduce 1%
13/05/10 12:55:57 INFO mapred.JobClient:  map 11% reduce 1%
13/05/10 12:56:24 INFO mapred.JobClient:  map 11% reduce 2%
13/05/10 12:56:34 INFO mapred.JobClient:  map 12% reduce 2%
13/05/10 12:56:46 INFO mapred.JobClient:  map 13% reduce 2%
13/05/10 12:57:00 INFO mapred.JobClient:  map 14% reduce 2%
13/05/10 12:57:09 INFO mapred.JobClient:  map 16% reduce 2%
13/05/10 12:57:54 INFO mapred.JobClient:  map 16% reduce 3%
13/05/10 12:57:57 INFO mapred.JobClient:  map 17% reduce 3%
13/05/10 12:58:26 INFO mapred.JobClient:  map 18% reduce 3%
13/05/10 12:59:03 INFO mapred.JobClient:  map 19% reduce 3%
13/05/10 12:59:24 INFO mapred.JobClient:  map 20% reduce 3%
13/05/10 12:59:35 INFO mapred.JobClient:  map 21% reduce 3%
13/05/10 12:59:39 INFO mapred.JobClient:  map 21% reduce 4%
13/05/10 12:59:53 INFO mapred.JobClient:  map 22% reduce 4%
13/05/10 13:00:08 INFO mapred.JobClient:  map 23% reduce 4%
13/05/10 13:00:19 INFO mapred.JobClient:  map 24% reduce 4%
13/05/10 13:00:49 INFO mapred.JobClient:  map 26% reduce 4%
13/05/10 13:00:54 INFO mapred.JobClient:  map 26% reduce 5%
13/05/10 13:01:07 INFO mapred.JobClient:  map 27% reduce 5%
13/05/10 13:01:23 INFO mapred.JobClient:  map 28% reduce 5%
13/05/10 13:01:43 INFO mapred.JobClient:  map 29% reduce 5%
13/05/10 13:02:01 INFO mapred.JobClient:  map 30% reduce 5%
13/05/10 13:02:14 INFO mapred.JobClient:  map 30% reduce 6%
13/05/10 13:02:27 INFO mapred.JobClient:  map 31% reduce 6%
13/05/10 13:02:44 INFO mapred.JobClient:  map 32% reduce 6%
13/05/10 13:02:59 INFO mapred.JobClient:  map 33% reduce 6%
13/05/10 13:03:09 INFO mapred.JobClient:  map 34% reduce 6%
13/05/10 13:03:16 INFO mapred.JobClient:  map 34% reduce 7%
13/05/10 13:03:18 INFO mapred.JobClient:  map 35% reduce 7%
13/05/10 13:03:30 INFO mapred.JobClient:  map 36% reduce 7%
13/05/10 13:03:45 INFO mapred.JobClient:  map 37% reduce 7%
13/05/10 13:03:59 INFO mapred.JobClient: Task Id : attempt_201305071141_0007_m_000300_0, Status : FAILED
java.lang.IllegalArgumentException: java.net.UnknownHostException: vm004
	at org.apache.hadoop.security.SecurityUtil.buildTokenService(SecurityUtil.java:414)
	at org.apache.hadoop.hdfs.NameNodeProxies.createNonHAProxy(NameNodeProxies.java:164)
	at org.apache.hadoop.hdfs.NameNodeProxies.createProxy(NameNodeProxies.java:129)
	at org.apache.hadoop.hdfs.DFSClient.<init>(DFSClient.java:436)
	at org.apache.hadoop.hdfs.DFSClient.<init>(DFSClient.java:403)
	at org.apache.hadoop.hdfs.DistributedFileSystem.initialize(DistributedFileSystem.java:125)
	at org.apache.hadoop.fs.FileSystem.createFileSystem(FileSystem.java:2262)
	at org.apache.hadoop.fs.FileSystem.access$200(FileSystem.java:86)
	at org.apache.hadoop.fs.FileSystem$Cache.getInternal(FileSystem.java:2296)
	at org.apache.hadoop.fs.FileSystem$Cache.get(FileSystem.java:2278)
	at org.apache.hadoop.fs.FileSystem.get(FileSystem.java:316)
	at org.apache.hadoop.fs.FileSystem.get(FileSystem.java:162)
	at org.apache.hadoop.mapred.Child$4.run(Child.java:267)
	at java.secur
13/05/10 13:04:00 INFO mapred.JobClient: Task Id : attempt_201305071141_0007_m_000313_0, Status : FAILED
java.lang.IllegalArgumentException: java.net.UnknownHostException: vm004
	at org.apache.hadoop.security.SecurityUtil.buildTokenService(SecurityUtil.java:414)
	at org.apache.hadoop.hdfs.NameNodeProxies.createNonHAProxy(NameNodeProxies.java:164)
	at org.apache.hadoop.hdfs.NameNodeProxies.createProxy(NameNodeProxies.java:129)
	at org.apache.hadoop.hdfs.DFSClient.<init>(DFSClient.java:436)
	at org.apache.hadoop.hdfs.DFSClient.<init>(DFSClient.java:403)
	at org.apache.hadoop.hdfs.DistributedFileSystem.initialize(DistributedFileSystem.java:125)
	at org.apache.hadoop.fs.FileSystem.createFileSystem(FileSystem.java:2262)
	at org.apache.hadoop.fs.FileSystem.access$200(FileSystem.java:86)
	at org.apache.hadoop.fs.FileSystem$Cache.getInternal(FileSystem.java:2296)
	at org.apache.hadoop.fs.FileSystem$Cache.get(FileSystem.java:2278)
	at org.apache.hadoop.fs.FileSystem.get(FileSystem.java:316)
	at org.apache.hadoop.fs.FileSystem.get(FileSystem.java:162)
	at org.apache.hadoop.mapred.Child$4.run(Child.java:267)
	at java.secur
13/05/10 13:04:02 INFO mapred.JobClient:  map 38% reduce 7%
13/05/10 13:04:08 INFO mapred.JobClient:  map 38% reduce 8%
13/05/10 13:04:16 INFO mapred.JobClient:  map 39% reduce 8%
13/05/10 13:04:35 INFO mapred.JobClient:  map 40% reduce 8%
13/05/10 13:04:46 INFO mapred.JobClient:  map 41% reduce 8%
13/05/10 13:04:58 INFO mapred.JobClient:  map 42% reduce 8%
13/05/10 13:05:33 INFO mapred.JobClient:  map 43% reduce 8%
13/05/10 13:05:39 INFO mapred.JobClient:  map 43% reduce 9%
13/05/10 13:05:49 INFO mapred.JobClient:  map 44% reduce 9%
13/05/10 13:06:02 INFO mapred.JobClient:  map 45% reduce 9%
13/05/10 13:06:17 INFO mapred.JobClient:  map 46% reduce 9%
13/05/10 13:06:24 INFO mapred.JobClient:  map 47% reduce 9%
13/05/10 13:06:29 INFO mapred.JobClient:  map 48% reduce 9%
13/05/10 13:06:37 INFO mapred.JobClient:  map 48% reduce 10%
13/05/10 13:06:40 INFO mapred.JobClient:  map 49% reduce 10%
13/05/10 13:07:01 INFO mapred.JobClient:  map 50% reduce 10%
13/05/10 13:07:20 INFO mapred.JobClient:  map 51% reduce 10%
13/05/10 13:07:35 INFO mapred.JobClient:  map 52% reduce 10%
13/05/10 13:07:52 INFO mapred.JobClient:  map 53% reduce 11%
13/05/10 13:07:56 INFO mapred.JobClient:  map 54% reduce 11%
13/05/10 13:08:21 INFO mapred.JobClient:  map 55% reduce 11%
13/05/10 13:08:42 INFO mapred.JobClient:  map 55% reduce 12%
13/05/10 13:08:47 INFO mapred.JobClient:  map 56% reduce 12%
13/05/10 13:08:58 INFO mapred.JobClient:  map 57% reduce 12%
13/05/10 13:09:03 INFO mapred.JobClient:  map 58% reduce 12%
13/05/10 13:09:15 INFO mapred.JobClient:  map 59% reduce 12%
13/05/10 13:09:35 INFO mapred.JobClient:  map 60% reduce 12%
13/05/10 13:09:41 INFO mapred.JobClient:  map 60% reduce 13%
13/05/10 13:09:45 INFO mapred.JobClient:  map 61% reduce 13%
13/05/10 13:09:54 INFO mapred.JobClient:  map 62% reduce 13%
13/05/10 13:10:09 INFO mapred.JobClient:  map 63% reduce 13%
13/05/10 13:10:26 INFO mapred.JobClient:  map 64% reduce 13%
13/05/10 13:10:44 INFO mapred.JobClient:  map 65% reduce 13%
13/05/10 13:11:08 INFO mapred.JobClient:  map 65% reduce 14%
13/05/10 13:11:15 INFO mapred.JobClient:  map 66% reduce 14%
13/05/10 13:11:26 INFO mapred.JobClient:  map 67% reduce 14%
13/05/10 13:11:36 INFO mapred.JobClient:  map 68% reduce 14%
13/05/10 13:11:47 INFO mapred.JobClient:  map 69% reduce 14%
13/05/10 13:12:03 INFO mapred.JobClient:  map 70% reduce 14%
13/05/10 13:12:05 INFO mapred.JobClient:  map 70% reduce 15%
13/05/10 13:12:17 INFO mapred.JobClient:  map 71% reduce 15%
13/05/10 13:12:23 INFO mapred.JobClient:  map 72% reduce 15%
13/05/10 13:12:34 INFO mapred.JobClient:  map 73% reduce 15%
13/05/10 13:12:41 INFO mapred.JobClient:  map 74% reduce 15%
13/05/10 13:13:09 INFO mapred.JobClient:  map 75% reduce 15%
13/05/10 13:13:13 INFO mapred.JobClient:  map 75% reduce 16%
13/05/10 13:13:23 INFO mapred.JobClient:  map 76% reduce 16%
13/05/10 13:13:38 INFO mapred.JobClient:  map 77% reduce 16%
13/05/10 13:14:03 INFO mapred.JobClient:  map 78% reduce 16%
13/05/10 13:14:17 INFO mapred.JobClient:  map 79% reduce 16%
13/05/10 13:14:26 INFO mapred.JobClient:  map 79% reduce 17%
13/05/10 13:14:27 INFO mapred.JobClient:  map 80% reduce 17%
13/05/10 13:14:44 INFO mapred.JobClient:  map 81% reduce 17%
13/05/10 13:15:04 INFO mapred.JobClient:  map 82% reduce 17%
13/05/10 13:15:11 INFO mapred.JobClient:  map 83% reduce 17%
13/05/10 13:15:17 INFO mapred.JobClient:  map 84% reduce 17%
13/05/10 13:15:22 INFO mapred.JobClient:  map 84% reduce 18%
13/05/10 13:15:24 INFO mapred.JobClient:  map 85% reduce 18%
13/05/10 13:15:46 INFO mapred.JobClient:  map 86% reduce 18%
13/05/10 13:16:09 INFO mapred.JobClient:  map 87% reduce 18%
13/05/10 13:16:22 INFO mapred.JobClient:  map 88% reduce 18%
13/05/10 13:16:36 INFO mapred.JobClient:  map 88% reduce 19%
13/05/10 13:16:53 INFO mapred.JobClient:  map 89% reduce 19%
13/05/10 13:17:11 INFO mapred.JobClient:  map 90% reduce 19%
13/05/10 13:17:18 INFO mapred.JobClient:  map 91% reduce 19%
13/05/10 13:17:27 INFO mapred.JobClient:  map 92% reduce 19%
13/05/10 13:17:44 INFO mapred.JobClient:  map 92% reduce 20%
13/05/10 13:17:45 INFO mapred.JobClient:  map 93% reduce 20%
13/05/10 13:17:55 INFO mapred.JobClient:  map 94% reduce 20%
13/05/10 13:18:05 INFO mapred.JobClient:  map 95% reduce 20%
13/05/10 13:18:13 INFO mapred.JobClient:  map 96% reduce 20%
13/05/10 13:18:22 INFO mapred.JobClient:  map 97% reduce 20%
13/05/10 13:18:33 INFO mapred.JobClient:  map 98% reduce 20%
13/05/10 13:18:37 INFO mapred.JobClient:  map 98% reduce 21%
13/05/10 13:19:00 INFO mapred.JobClient:  map 99% reduce 21%
13/05/10 13:19:47 INFO mapred.JobClient:  map 99% reduce 22%
13/05/10 13:19:53 INFO mapred.JobClient:  map 100% reduce 22%
13/05/10 13:20:10 INFO mapred.JobClient:  map 100% reduce 23%
13/05/10 13:20:14 INFO mapred.JobClient:  map 100% reduce 24%
13/05/10 13:20:27 INFO mapred.JobClient:  map 100% reduce 25%
13/05/10 13:20:29 INFO mapred.JobClient:  map 100% reduce 26%
13/05/10 13:20:31 INFO mapred.JobClient:  map 100% reduce 27%
13/05/10 13:20:41 INFO mapred.JobClient:  map 100% reduce 28%
13/05/10 13:20:43 INFO mapred.JobClient:  map 100% reduce 29%
13/05/10 13:20:46 INFO mapred.JobClient:  map 100% reduce 30%
13/05/10 13:20:48 INFO mapred.JobClient:  map 100% reduce 31%
13/05/10 13:20:49 INFO mapred.JobClient:  map 100% reduce 33%
13/05/10 13:20:52 INFO mapred.JobClient:  map 100% reduce 34%
13/05/10 13:20:53 INFO mapred.JobClient:  map 100% reduce 35%
13/05/10 13:20:56 INFO mapred.JobClient:  map 100% reduce 37%
13/05/10 13:20:58 INFO mapred.JobClient:  map 100% reduce 38%
13/05/10 13:21:01 INFO mapred.JobClient:  map 100% reduce 39%
13/05/10 13:21:04 INFO mapred.JobClient:  map 100% reduce 40%
13/05/10 13:21:13 INFO mapred.JobClient:  map 100% reduce 41%
13/05/10 13:21:17 INFO mapred.JobClient:  map 100% reduce 42%
13/05/10 13:21:18 INFO mapred.JobClient:  map 100% reduce 43%
13/05/10 13:21:20 INFO mapred.JobClient:  map 100% reduce 44%
13/05/10 13:21:52 INFO mapred.JobClient:  map 100% reduce 45%
13/05/10 13:24:52 INFO mapred.JobClient:  map 100% reduce 46%
13/05/10 13:27:53 INFO mapred.JobClient:  map 100% reduce 47%
13/05/10 13:31:05 INFO mapred.JobClient:  map 100% reduce 48%
13/05/10 13:34:24 INFO mapred.JobClient:  map 100% reduce 49%
13/05/10 13:37:40 INFO mapred.JobClient:  map 100% reduce 50%
13/05/10 13:39:47 INFO mapred.JobClient:  map 100% reduce 51%
13/05/10 13:41:19 INFO mapred.JobClient:  map 100% reduce 52%
13/05/10 13:42:29 INFO mapred.JobClient:  map 100% reduce 53%
13/05/10 13:42:49 INFO mapred.JobClient:  map 100% reduce 54%
13/05/10 13:42:58 INFO mapred.JobClient:  map 100% reduce 55%
13/05/10 13:43:26 INFO mapred.JobClient:  map 100% reduce 56%
13/05/10 13:44:24 INFO mapred.JobClient:  map 100% reduce 58%
13/05/10 13:44:54 INFO mapred.JobClient:  map 100% reduce 59%
13/05/10 13:45:27 INFO mapred.JobClient:  map 100% reduce 60%
13/05/10 13:45:36 INFO mapred.JobClient:  map 100% reduce 61%
13/05/10 13:45:46 INFO mapred.JobClient:  map 100% reduce 62%
13/05/10 13:46:07 INFO mapred.JobClient:  map 100% reduce 63%
13/05/10 13:46:33 INFO mapred.JobClient:  map 100% reduce 64%
13/05/10 13:46:43 INFO mapred.JobClient:  map 100% reduce 65%
13/05/10 13:47:04 INFO mapred.JobClient:  map 100% reduce 66%
13/05/10 13:47:38 INFO mapred.JobClient:  map 100% reduce 67%
13/05/10 13:48:00 INFO mapred.JobClient:  map 100% reduce 68%
13/05/10 13:48:19 INFO mapred.JobClient:  map 100% reduce 69%
13/05/10 13:48:51 INFO mapred.JobClient:  map 100% reduce 70%
13/05/10 13:49:25 INFO mapred.JobClient:  map 100% reduce 71%
13/05/10 13:50:00 INFO mapred.JobClient:  map 100% reduce 72%
13/05/10 13:50:45 INFO mapred.JobClient:  map 100% reduce 73%
13/05/10 13:51:20 INFO mapred.JobClient:  map 100% reduce 74%
13/05/10 13:51:59 INFO mapred.JobClient:  map 100% reduce 75%
13/05/10 13:52:27 INFO mapred.JobClient:  map 100% reduce 76%
13/05/10 13:52:57 INFO mapred.JobClient:  map 100% reduce 77%
13/05/10 13:53:12 INFO mapred.JobClient:  map 100% reduce 78%
13/05/10 13:54:10 INFO mapred.JobClient:  map 100% reduce 79%
13/05/10 13:54:18 INFO mapred.JobClient:  map 100% reduce 80%
13/05/10 13:54:26 INFO mapred.JobClient:  map 100% reduce 81%
13/05/10 13:54:33 INFO mapred.JobClient:  map 100% reduce 82%
13/05/10 13:55:02 INFO mapred.JobClient:  map 100% reduce 83%
13/05/10 13:55:18 INFO mapred.JobClient:  map 100% reduce 84%
13/05/10 13:55:35 INFO mapred.JobClient:  map 100% reduce 85%
13/05/10 13:55:49 INFO mapred.JobClient:  map 100% reduce 86%
13/05/10 13:55:56 INFO mapred.JobClient:  map 100% reduce 87%
13/05/10 13:57:00 INFO mapred.JobClient:  map 100% reduce 88%
13/05/10 13:57:37 INFO mapred.JobClient:  map 100% reduce 89%
13/05/10 13:58:53 INFO mapred.JobClient:  map 100% reduce 90%
13/05/10 14:05:25 INFO mapred.JobClient:  map 100% reduce 91%
13/05/10 14:08:50 INFO mapred.JobClient:  map 100% reduce 92%
13/05/10 14:11:45 INFO mapred.JobClient:  map 100% reduce 93%
13/05/10 14:14:08 INFO mapred.JobClient:  map 100% reduce 94%
13/05/10 14:15:41 INFO mapred.JobClient:  map 100% reduce 95%
13/05/10 14:16:28 INFO mapred.JobClient:  map 100% reduce 96%
13/05/10 14:17:13 INFO mapred.JobClient:  map 100% reduce 97%
13/05/10 14:18:08 INFO mapred.JobClient:  map 100% reduce 98%
13/05/10 14:18:53 INFO mapred.JobClient:  map 100% reduce 99%
13/05/10 14:19:30 INFO mapred.JobClient:  map 100% reduce 100%
13/05/10 14:19:36 INFO mapred.JobClient: Job complete: job_201305071141_0007
13/05/10 14:19:36 INFO mapred.JobClient: Counters: 36
13/05/10 14:19:36 INFO mapred.JobClient:   File System Counters
13/05/10 14:19:37 INFO mapred.JobClient:     FILE: Number of bytes read=19166419079
13/05/10 14:19:37 INFO mapred.JobClient:     FILE: Number of bytes written=38490077555
13/05/10 14:19:37 INFO mapred.JobClient:     FILE: Number of read operations=0
13/05/10 14:19:37 INFO mapred.JobClient:     FILE: Number of large read operations=0
13/05/10 14:19:37 INFO mapred.JobClient:     FILE: Number of write operations=0
13/05/10 14:19:37 INFO mapred.JobClient:     HDFS: Number of bytes read=52480994385
13/05/10 14:19:37 INFO mapred.JobClient:     HDFS: Number of bytes written=45688888898
13/05/10 14:19:37 INFO mapred.JobClient:     HDFS: Number of read operations=1826
13/05/10 14:19:37 INFO mapred.JobClient:     HDFS: Number of large read operations=0
13/05/10 14:19:37 INFO mapred.JobClient:     HDFS: Number of write operations=164
13/05/10 14:19:37 INFO mapred.JobClient:   Job Counters 
13/05/10 14:19:37 INFO mapred.JobClient:     Launched map tasks=800
13/05/10 14:19:37 INFO mapred.JobClient:     Launched reduce tasks=88
13/05/10 14:19:37 INFO mapred.JobClient:     Data-local map tasks=782
13/05/10 14:19:37 INFO mapred.JobClient:     Rack-local map tasks=18
13/05/10 14:19:37 INFO mapred.JobClient:     Total time spent by all maps in occupied slots (ms)=67278520
13/05/10 14:19:37 INFO mapred.JobClient:     Total time spent by all reduces in occupied slots (ms)=174801725
13/05/10 14:19:37 INFO mapred.JobClient:     Total time spent by all maps waiting after reserving slots (ms)=0
13/05/10 14:19:37 INFO mapred.JobClient:     Total time spent by all reduces waiting after reserving slots (ms)=0
13/05/10 14:19:37 INFO mapred.JobClient:   Map-Reduce Framework
13/05/10 14:19:37 INFO mapred.JobClient:     Map input records=200000000
13/05/10 14:19:37 INFO mapred.JobClient:     Map output records=200000000
13/05/10 14:19:37 INFO mapred.JobClient:     Map output bytes=51377777796
13/05/10 14:19:37 INFO mapred.JobClient:     Input split bytes=100878
13/05/10 14:19:37 INFO mapred.JobClient:     Combine input records=0
13/05/10 14:19:37 INFO mapred.JobClient:     Combine output records=0
13/05/10 14:19:37 INFO mapred.JobClient:     Reduce input groups=100000000
13/05/10 14:19:37 INFO mapred.JobClient:     Reduce shuffle bytes=19187381302
13/05/10 14:19:37 INFO mapred.JobClient:     Reduce input records=200000000
13/05/10 14:19:37 INFO mapred.JobClient:     Reduce output records=100000000
13/05/10 14:19:37 INFO mapred.JobClient:     Spilled Records=400000000
13/05/10 14:19:37 INFO mapred.JobClient:     CPU time spent (ms)=26766920
13/05/10 14:19:37 INFO mapred.JobClient:     Physical memory (bytes) snapshot=224853684224
13/05/10 14:19:37 INFO mapred.JobClient:     Virtual memory (bytes) snapshot=920006823936
13/05/10 14:19:37 INFO mapred.JobClient:     Total committed heap usage (bytes)=137884299264
13/05/10 14:19:37 INFO mapred.JobClient:   it.crs4.seal.prq.PairReadsQSeqReducer$ReadCounters
13/05/10 14:19:37 INFO mapred.JobClient:     Dropped=0
13/05/10 14:19:37 INFO mapred.JobClient:     FailedFilter=0
13/05/10 14:19:37 INFO mapred.JobClient:     NotEnoughBases=0
