Using hadoop executable /usr/bin/hadoop
INFO:seqal:Input: dm3_6666666_prq; Output: dm3_6666666_seqal_1; reference: references/dm3/dm3.tar
13/05/28 15:04:27 WARN util.NativeCodeLoader: Unable to load native-hadoop library for your platform... using builtin-java classes where applicable
INFO:seqal:Running in alignment-only mode (no rmdup).
DEPRECATED: Use of this script to execute mapred command is deprecated.
Instead use the mapred command for it.

13/05/28 15:04:29 WARN mapred.JobClient: Use GenericOptionsParser for parsing the arguments. Applications should implement Tool for the same.
13/05/28 15:04:29 WARN mapred.JobClient: No job jar file set.  User classes may not be found. See JobConf(Class) or JobConf#setJar(String).
13/05/28 15:04:30 INFO mapred.FileInputFormat: Total input paths to process : 33
13/05/28 15:04:30 INFO mapred.JobClient: Running job: job_201305071141_0104
13/05/28 15:04:31 INFO mapred.JobClient:  map 0% reduce 0%
13/05/28 15:04:51 INFO mapred.JobClient:  map 1% reduce 0%
13/05/28 15:04:58 INFO mapred.JobClient:  map 2% reduce 0%
13/05/28 15:05:01 INFO mapred.JobClient:  map 3% reduce 0%
13/05/28 15:05:03 INFO mapred.JobClient:  map 4% reduce 0%
13/05/28 15:05:04 INFO mapred.JobClient:  map 5% reduce 0%
13/05/28 15:05:09 INFO mapred.JobClient:  map 6% reduce 0%
13/05/28 15:05:13 INFO mapred.JobClient:  map 7% reduce 0%
13/05/28 15:05:18 INFO mapred.JobClient:  map 8% reduce 0%
13/05/28 15:05:19 INFO mapred.JobClient:  map 9% reduce 0%
13/05/28 15:05:25 INFO mapred.JobClient:  map 10% reduce 0%
13/05/28 15:05:27 INFO mapred.JobClient:  map 11% reduce 0%
13/05/28 15:05:34 INFO mapred.JobClient:  map 12% reduce 0%
13/05/28 15:05:39 INFO mapred.JobClient:  map 13% reduce 0%
13/05/28 15:05:43 INFO mapred.JobClient:  map 14% reduce 0%
13/05/28 15:05:48 INFO mapred.JobClient:  map 15% reduce 0%
13/05/28 15:05:57 INFO mapred.JobClient:  map 16% reduce 0%
13/05/28 15:06:00 INFO mapred.JobClient:  map 17% reduce 0%
13/05/28 15:06:12 INFO mapred.JobClient:  map 18% reduce 0%
13/05/28 15:06:16 INFO mapred.JobClient:  map 19% reduce 0%
13/05/28 15:06:27 INFO mapred.JobClient:  map 20% reduce 0%
13/05/28 15:06:31 INFO mapred.JobClient:  map 21% reduce 0%
13/05/28 15:06:34 INFO mapred.JobClient:  map 22% reduce 0%
13/05/28 15:06:39 INFO mapred.JobClient:  map 23% reduce 0%
13/05/28 15:06:45 INFO mapred.JobClient:  map 24% reduce 0%
13/05/28 15:06:48 INFO mapred.JobClient:  map 25% reduce 0%
13/05/28 15:06:53 INFO mapred.JobClient:  map 26% reduce 0%
13/05/28 15:06:57 INFO mapred.JobClient:  map 27% reduce 0%
13/05/28 15:07:00 INFO mapred.JobClient:  map 28% reduce 0%
13/05/28 15:07:03 INFO mapred.JobClient:  map 29% reduce 0%
13/05/28 15:07:08 INFO mapred.JobClient:  map 30% reduce 0%
13/05/28 15:07:12 INFO mapred.JobClient:  map 31% reduce 0%
13/05/28 15:07:21 INFO mapred.JobClient:  map 32% reduce 0%
13/05/28 15:07:24 INFO mapred.JobClient:  map 33% reduce 0%
13/05/28 15:07:29 INFO mapred.JobClient:  map 34% reduce 0%
13/05/28 15:07:33 INFO mapred.JobClient:  map 35% reduce 0%
13/05/28 15:07:36 INFO mapred.JobClient:  map 36% reduce 0%
13/05/28 15:07:41 INFO mapred.JobClient:  map 37% reduce 0%
13/05/28 15:07:47 INFO mapred.JobClient:  map 38% reduce 0%
13/05/28 15:07:51 INFO mapred.JobClient:  map 39% reduce 0%
13/05/28 15:07:52 INFO mapred.JobClient:  map 40% reduce 0%
13/05/28 15:07:58 INFO mapred.JobClient:  map 41% reduce 0%
13/05/28 15:08:00 INFO mapred.JobClient:  map 42% reduce 0%
13/05/28 15:08:06 INFO mapred.JobClient:  map 43% reduce 0%
13/05/28 15:08:08 INFO mapred.JobClient:  map 44% reduce 0%
13/05/28 15:08:14 INFO mapred.JobClient:  map 45% reduce 0%
13/05/28 15:08:16 INFO mapred.JobClient:  map 46% reduce 0%
13/05/28 15:08:22 INFO mapred.JobClient:  map 47% reduce 0%
13/05/28 15:08:24 INFO mapred.JobClient:  map 48% reduce 0%
13/05/28 15:08:31 INFO mapred.JobClient:  map 49% reduce 0%
13/05/28 15:08:34 INFO mapred.JobClient:  map 50% reduce 0%
13/05/28 15:08:41 INFO mapred.JobClient:  map 51% reduce 0%
13/05/28 15:08:46 INFO mapred.JobClient:  map 52% reduce 0%
13/05/28 15:08:49 INFO mapred.JobClient:  map 53% reduce 0%
13/05/28 15:08:56 INFO mapred.JobClient:  map 54% reduce 0%
13/05/28 15:08:59 INFO mapred.JobClient:  map 55% reduce 0%
13/05/28 15:09:03 INFO mapred.JobClient:  map 56% reduce 0%
13/05/28 15:09:07 INFO mapred.JobClient:  map 57% reduce 0%
13/05/28 15:09:11 INFO mapred.JobClient:  map 58% reduce 0%
13/05/28 15:09:16 INFO mapred.JobClient:  map 59% reduce 0%
13/05/28 15:09:21 INFO mapred.JobClient:  map 60% reduce 0%
13/05/28 15:09:23 INFO mapred.JobClient:  map 61% reduce 0%
13/05/28 15:09:29 INFO mapred.JobClient:  map 62% reduce 0%
13/05/28 15:09:33 INFO mapred.JobClient:  map 63% reduce 0%
13/05/28 15:09:38 INFO mapred.JobClient:  map 64% reduce 0%
13/05/28 15:09:41 INFO mapred.JobClient:  map 65% reduce 0%
13/05/28 15:09:45 INFO mapred.JobClient:  map 66% reduce 0%
13/05/28 15:09:50 INFO mapred.JobClient:  map 67% reduce 0%
13/05/28 15:09:59 INFO mapred.JobClient:  map 68% reduce 0%
13/05/28 15:10:04 INFO mapred.JobClient:  map 69% reduce 0%
13/05/28 15:10:07 INFO mapred.JobClient:  map 70% reduce 0%
13/05/28 15:10:09 INFO mapred.JobClient:  map 71% reduce 0%
13/05/28 15:10:12 INFO mapred.JobClient:  map 72% reduce 0%
13/05/28 15:10:14 INFO mapred.JobClient:  map 73% reduce 0%
13/05/28 15:10:19 INFO mapred.JobClient:  map 74% reduce 0%
13/05/28 15:10:22 INFO mapred.JobClient:  map 75% reduce 0%
13/05/28 15:10:25 INFO mapred.JobClient:  map 76% reduce 0%
13/05/28 15:10:30 INFO mapred.JobClient:  map 77% reduce 0%
13/05/28 15:10:34 INFO mapred.JobClient:  map 78% reduce 0%
13/05/28 15:10:38 INFO mapred.JobClient:  map 79% reduce 0%
13/05/28 15:10:41 INFO mapred.JobClient:  map 80% reduce 0%
13/05/28 15:10:45 INFO mapred.JobClient:  map 81% reduce 0%
13/05/28 15:10:48 INFO mapred.JobClient:  map 82% reduce 0%
13/05/28 15:10:52 INFO mapred.JobClient:  map 83% reduce 0%
13/05/28 15:10:56 INFO mapred.JobClient:  map 84% reduce 0%
13/05/28 15:10:58 INFO mapred.JobClient:  map 85% reduce 0%
13/05/28 15:11:02 INFO mapred.JobClient:  map 86% reduce 0%
13/05/28 15:11:05 INFO mapred.JobClient:  map 87% reduce 0%
13/05/28 15:11:09 INFO mapred.JobClient:  map 88% reduce 0%
13/05/28 15:11:12 INFO mapred.JobClient:  map 89% reduce 0%
13/05/28 15:11:18 INFO mapred.JobClient:  map 90% reduce 0%
13/05/28 15:11:20 INFO mapred.JobClient:  map 91% reduce 0%
13/05/28 15:11:25 INFO mapred.JobClient:  map 92% reduce 0%
13/05/28 15:11:30 INFO mapred.JobClient:  map 93% reduce 0%
13/05/28 15:11:34 INFO mapred.JobClient:  map 94% reduce 0%
13/05/28 15:11:38 INFO mapred.JobClient:  map 95% reduce 0%
13/05/28 15:11:44 INFO mapred.JobClient:  map 96% reduce 0%
13/05/28 15:11:49 INFO mapred.JobClient:  map 97% reduce 0%
13/05/28 15:11:56 INFO mapred.JobClient:  map 98% reduce 0%
13/05/28 15:12:09 INFO mapred.JobClient:  map 99% reduce 0%
13/05/28 15:12:49 INFO mapred.JobClient:  map 100% reduce 0%
13/05/28 15:12:50 INFO mapred.JobClient: Job complete: job_201305071141_0104
13/05/28 15:12:50 INFO mapred.JobClient: Counters: 40
13/05/28 15:12:50 INFO mapred.JobClient:   File System Counters
13/05/28 15:12:50 INFO mapred.JobClient:     FILE: Number of bytes read=0
13/05/28 15:12:50 INFO mapred.JobClient:     FILE: Number of bytes written=10725158
13/05/28 15:12:50 INFO mapred.JobClient:     FILE: Number of read operations=0
13/05/28 15:12:50 INFO mapred.JobClient:     FILE: Number of large read operations=0
13/05/28 15:12:50 INFO mapred.JobClient:     FILE: Number of write operations=0
13/05/28 15:12:50 INFO mapred.JobClient:     HDFS: Number of bytes read=4499026593
13/05/28 15:12:50 INFO mapred.JobClient:     HDFS: Number of bytes written=7154799823
13/05/28 15:12:50 INFO mapred.JobClient:     HDFS: Number of read operations=212
13/05/28 15:12:50 INFO mapred.JobClient:     HDFS: Number of large read operations=0
13/05/28 15:12:50 INFO mapred.JobClient:     HDFS: Number of write operations=132
13/05/28 15:12:50 INFO mapred.JobClient:   Job Counters 
13/05/28 15:12:50 INFO mapred.JobClient:     Launched map tasks=72
13/05/28 15:12:50 INFO mapred.JobClient:     Data-local map tasks=68
13/05/28 15:12:50 INFO mapred.JobClient:     Rack-local map tasks=4
13/05/28 15:12:50 INFO mapred.JobClient:     Total time spent by all maps in occupied slots (ms)=9759730
13/05/28 15:12:50 INFO mapred.JobClient:     Total time spent by all reduces in occupied slots (ms)=0
13/05/28 15:12:50 INFO mapred.JobClient:     Total time spent by all maps waiting after reserving slots (ms)=0
13/05/28 15:12:50 INFO mapred.JobClient:     Total time spent by all reduces waiting after reserving slots (ms)=0
13/05/28 15:12:50 INFO mapred.JobClient:   Map-Reduce Framework
13/05/28 15:12:50 INFO mapred.JobClient:     Map input records=9999990
13/05/28 15:12:50 INFO mapred.JobClient:     Map output records=19999980
13/05/28 15:12:50 INFO mapred.JobClient:     Input split bytes=6996
13/05/28 15:12:50 INFO mapred.JobClient:     Spilled Records=0
13/05/28 15:12:50 INFO mapred.JobClient:     CPU time spent (ms)=9249570
13/05/28 15:12:50 INFO mapred.JobClient:     Physical memory (bytes) snapshot=8717967360
13/05/28 15:12:50 INFO mapred.JobClient:     Virtual memory (bytes) snapshot=71116881920
13/05/28 15:12:50 INFO mapred.JobClient:     Total committed heap usage (bytes)=8168669184
13/05/28 15:12:50 INFO mapred.JobClient:   SEQAL
13/05/28 15:12:50 INFO mapred.JobClient:     EMITTED SAM RECORDS=19999980
13/05/28 15:12:50 INFO mapred.JobClient:     READS PROCESSED=19999980
13/05/28 15:12:50 INFO mapred.JobClient:     TIME_ANALYZE_PAIRS (CAL_+SW+REFGAP+PROCESS)=8756987
13/05/28 15:12:50 INFO mapred.JobClient:     TIME_BUILD_BWSA=91403
13/05/28 15:12:50 INFO mapred.JobClient:     TIME_CAL_PAC_POS_PE=584811
13/05/28 15:12:50 INFO mapred.JobClient:     TIME_CAL_SA_REG_GAP=4242291
13/05/28 15:12:50 INFO mapred.JobClient:     TIME_COUNT_BASES=93968
13/05/28 15:12:50 INFO mapred.JobClient:     TIME_DESTROY_SEQUENCES=6051
13/05/28 15:12:50 INFO mapred.JobClient:     TIME_PAIRED_SW=120063
13/05/28 15:12:50 INFO mapred.JobClient:     TIME_REFINE_GAPPED=17327
13/05/28 15:12:50 INFO mapred.JobClient:     TIME_RESTORE_INDEX=1937
13/05/28 15:12:50 INFO mapred.JobClient:     TIME_RESTORE_REFERENCE=1140
13/05/28 15:12:50 INFO mapred.JobClient:     TOTAL BASES=2019997980
13/05/28 15:12:50 INFO mapred.JobClient:     TRIMMED BASES=0
13/05/28 15:12:50 INFO mapred.JobClient:   org.apache.hadoop.mapreduce.lib.input.FileInputFormatCounter
13/05/28 15:12:50 INFO mapred.JobClient:     BYTES_READ=4498884396
