19380.43user 74.30system 5:31:01elapsed 97%CPU (0avgtext+0avgdata 1182880maxresident)k
50225672inputs+5568112outputs (2major+9095539minor)pagefaults 0swaps
23278.63user 69.18system 6:37:09elapsed 97%CPU (0avgtext+0avgdata 1183520maxresident)k
50225600inputs+5527912outputs (1major+9113086minor)pagefaults 0swaps
