543.28user 8.81system 9:39.83elapsed 95%CPU (0avgtext+0avgdata 558720maxresident)k
5102832inputs+396008outputs (1major+842677minor)pagefaults 0swaps
600.41user 6.43system 10:36.86elapsed 95%CPU (0avgtext+0avgdata 558704maxresident)k
5095488inputs+391680outputs (0major+842679minor)pagefaults 0swaps
