Using hadoop executable /usr/bin/hadoop
INFO:seqal:Input: hg19_1075269_prq; Output: hg19_1075269_seqal_2; reference: references/hg19/hg19.tar
13/06/02 02:58:14 WARN util.NativeCodeLoader: Unable to load native-hadoop library for your platform... using builtin-java classes where applicable
INFO:seqal:Running in alignment-only mode (no rmdup).
DEPRECATED: Use of this script to execute mapred command is deprecated.
Instead use the mapred command for it.

13/06/02 02:58:17 WARN mapred.JobClient: Use GenericOptionsParser for parsing the arguments. Applications should implement Tool for the same.
13/06/02 02:58:18 WARN mapred.JobClient: No job jar file set.  User classes may not be found. See JobConf(Class) or JobConf#setJar(String).
13/06/02 02:58:18 INFO mapred.FileInputFormat: Total input paths to process : 6
13/06/02 02:58:20 INFO mapred.JobClient: Running job: job_201305291147_0048
13/06/02 02:58:21 INFO mapred.JobClient:  map 0% reduce 0%
13/06/02 03:04:38 INFO mapred.JobClient:  map 1% reduce 0%
13/06/02 03:11:35 INFO mapred.JobClient:  map 2% reduce 0%
13/06/02 03:18:31 INFO mapred.JobClient:  map 3% reduce 0%
13/06/02 03:24:55 INFO mapred.JobClient:  map 4% reduce 0%
13/06/02 03:31:27 INFO mapred.JobClient:  map 5% reduce 0%
13/06/02 03:38:17 INFO mapred.JobClient:  map 6% reduce 0%
13/06/02 03:44:47 INFO mapred.JobClient:  map 7% reduce 0%
13/06/02 03:52:07 INFO mapred.JobClient:  map 8% reduce 0%
13/06/02 03:58:32 INFO mapred.JobClient:  map 9% reduce 0%
13/06/02 04:05:46 INFO mapred.JobClient:  map 10% reduce 0%
13/06/02 04:13:02 INFO mapred.JobClient:  map 11% reduce 0%
13/06/02 04:19:46 INFO mapred.JobClient:  map 12% reduce 0%
13/06/02 04:26:40 INFO mapred.JobClient:  map 13% reduce 0%
13/06/02 04:34:41 INFO mapred.JobClient:  map 14% reduce 0%
13/06/02 04:42:30 INFO mapred.JobClient:  map 15% reduce 0%
13/06/02 04:50:15 INFO mapred.JobClient:  map 16% reduce 0%
13/06/02 04:56:45 INFO mapred.JobClient:  map 17% reduce 0%
13/06/02 05:02:57 INFO mapred.JobClient:  map 18% reduce 0%
13/06/02 05:10:17 INFO mapred.JobClient:  map 19% reduce 0%
13/06/02 05:16:49 INFO mapred.JobClient:  map 20% reduce 0%
13/06/02 05:23:17 INFO mapred.JobClient:  map 21% reduce 0%
13/06/02 05:29:54 INFO mapred.JobClient:  map 22% reduce 0%
13/06/02 05:36:37 INFO mapred.JobClient:  map 23% reduce 0%
13/06/02 05:43:28 INFO mapred.JobClient:  map 24% reduce 0%
13/06/02 05:49:53 INFO mapred.JobClient:  map 25% reduce 0%
13/06/02 05:57:01 INFO mapred.JobClient:  map 26% reduce 0%
13/06/02 06:04:03 INFO mapred.JobClient:  map 27% reduce 0%
13/06/02 06:11:32 INFO mapred.JobClient:  map 28% reduce 0%
13/06/02 06:17:51 INFO mapred.JobClient:  map 29% reduce 0%
13/06/02 06:25:19 INFO mapred.JobClient:  map 30% reduce 0%
13/06/02 06:33:33 INFO mapred.JobClient:  map 31% reduce 0%
13/06/02 06:41:14 INFO mapred.JobClient:  map 32% reduce 0%
13/06/02 06:48:45 INFO mapred.JobClient:  map 33% reduce 0%
13/06/02 06:55:06 INFO mapred.JobClient:  map 34% reduce 0%
13/06/02 07:02:04 INFO mapred.JobClient:  map 35% reduce 0%
13/06/02 07:08:59 INFO mapred.JobClient:  map 36% reduce 0%
13/06/02 07:15:23 INFO mapred.JobClient:  map 37% reduce 0%
13/06/02 07:22:00 INFO mapred.JobClient:  map 38% reduce 0%
13/06/02 07:28:45 INFO mapred.JobClient:  map 39% reduce 0%
13/06/02 07:35:27 INFO mapred.JobClient:  map 40% reduce 0%
13/06/02 07:42:36 INFO mapred.JobClient:  map 41% reduce 0%
13/06/02 07:49:04 INFO mapred.JobClient:  map 42% reduce 0%
13/06/02 07:56:12 INFO mapred.JobClient:  map 43% reduce 0%
13/06/02 08:03:38 INFO mapred.JobClient:  map 44% reduce 0%
13/06/02 08:10:18 INFO mapred.JobClient:  map 45% reduce 0%
13/06/02 08:17:16 INFO mapred.JobClient:  map 46% reduce 0%
13/06/02 08:25:26 INFO mapred.JobClient:  map 47% reduce 0%
13/06/02 08:33:13 INFO mapred.JobClient:  map 48% reduce 0%
13/06/02 08:41:08 INFO mapred.JobClient:  map 49% reduce 0%
13/06/02 08:47:50 INFO mapred.JobClient:  map 50% reduce 0%
13/06/02 08:54:03 INFO mapred.JobClient:  map 51% reduce 0%
13/06/02 09:01:27 INFO mapred.JobClient:  map 52% reduce 0%
13/06/02 09:07:56 INFO mapred.JobClient:  map 53% reduce 0%
13/06/02 09:14:33 INFO mapred.JobClient:  map 54% reduce 0%
13/06/02 09:21:06 INFO mapred.JobClient:  map 55% reduce 0%
13/06/02 09:27:54 INFO mapred.JobClient:  map 56% reduce 0%
13/06/02 09:34:47 INFO mapred.JobClient:  map 57% reduce 0%
13/06/02 09:41:20 INFO mapred.JobClient:  map 58% reduce 0%
13/06/02 09:48:21 INFO mapred.JobClient:  map 59% reduce 0%
13/06/02 09:55:23 INFO mapred.JobClient:  map 60% reduce 0%
13/06/02 10:02:37 INFO mapred.JobClient:  map 61% reduce 0%
13/06/02 10:09:18 INFO mapred.JobClient:  map 62% reduce 0%
13/06/02 10:16:39 INFO mapred.JobClient:  map 63% reduce 0%
13/06/02 10:24:55 INFO mapred.JobClient:  map 64% reduce 0%
13/06/02 10:32:33 INFO mapred.JobClient:  map 65% reduce 0%
13/06/02 10:39:53 INFO mapred.JobClient:  map 66% reduce 0%
13/06/02 10:46:11 INFO mapred.JobClient:  map 67% reduce 0%
13/06/02 10:53:04 INFO mapred.JobClient:  map 68% reduce 0%
13/06/02 10:59:59 INFO mapred.JobClient:  map 69% reduce 0%
13/06/02 11:06:25 INFO mapred.JobClient:  map 70% reduce 0%
13/06/02 11:12:59 INFO mapred.JobClient:  map 71% reduce 0%
13/06/02 11:19:47 INFO mapred.JobClient:  map 72% reduce 0%
13/06/02 11:26:15 INFO mapred.JobClient:  map 73% reduce 0%
13/06/02 11:33:44 INFO mapred.JobClient:  map 74% reduce 0%
13/06/02 11:40:30 INFO mapred.JobClient:  map 75% reduce 0%
13/06/02 11:47:53 INFO mapred.JobClient:  map 76% reduce 0%
13/06/02 11:55:21 INFO mapred.JobClient:  map 77% reduce 0%
13/06/02 12:02:00 INFO mapred.JobClient:  map 78% reduce 0%
13/06/02 12:08:53 INFO mapred.JobClient:  map 79% reduce 0%
13/06/02 12:17:00 INFO mapred.JobClient:  map 80% reduce 0%
13/06/02 12:24:52 INFO mapred.JobClient:  map 81% reduce 0%
13/06/02 12:33:02 INFO mapred.JobClient:  map 82% reduce 0%
13/06/02 12:39:27 INFO mapred.JobClient:  map 83% reduce 0%
13/06/02 12:45:45 INFO mapred.JobClient:  map 84% reduce 0%
13/06/02 12:53:11 INFO mapred.JobClient:  map 85% reduce 0%
13/06/02 12:59:40 INFO mapred.JobClient:  map 86% reduce 0%
13/06/02 13:06:22 INFO mapred.JobClient:  map 87% reduce 0%
13/06/02 13:13:02 INFO mapred.JobClient:  map 88% reduce 0%
13/06/02 13:19:48 INFO mapred.JobClient:  map 89% reduce 0%
13/06/02 13:26:55 INFO mapred.JobClient:  map 90% reduce 0%
13/06/02 13:33:25 INFO mapred.JobClient:  map 91% reduce 0%
13/06/02 13:40:29 INFO mapred.JobClient:  map 92% reduce 0%
13/06/02 13:47:40 INFO mapred.JobClient:  map 93% reduce 0%
13/06/02 13:55:07 INFO mapred.JobClient:  map 94% reduce 0%
13/06/02 14:01:39 INFO mapred.JobClient:  map 95% reduce 0%
13/06/02 14:09:09 INFO mapred.JobClient:  map 96% reduce 0%
13/06/02 14:17:26 INFO mapred.JobClient:  map 97% reduce 0%
13/06/02 14:25:13 INFO mapred.JobClient:  map 98% reduce 0%
13/06/02 14:32:40 INFO mapred.JobClient:  map 99% reduce 0%
13/06/02 14:39:14 INFO mapred.JobClient:  map 100% reduce 0%
13/06/02 14:39:15 INFO mapred.JobClient: Job complete: job_201305291147_0048
13/06/02 14:39:15 INFO mapred.JobClient: Counters: 39
13/06/02 14:39:15 INFO mapred.JobClient:   File System Counters
13/06/02 14:39:15 INFO mapred.JobClient:     FILE: Number of bytes read=0
13/06/02 14:39:15 INFO mapred.JobClient:     FILE: Number of bytes written=109203250
13/06/02 14:39:15 INFO mapred.JobClient:     FILE: Number of read operations=0
13/06/02 14:39:15 INFO mapred.JobClient:     FILE: Number of large read operations=0
13/06/02 14:39:15 INFO mapred.JobClient:     FILE: Number of write operations=0
13/06/02 14:39:15 INFO mapred.JobClient:     HDFS: Number of bytes read=45091692992
13/06/02 14:39:15 INFO mapred.JobClient:     HDFS: Number of bytes written=75261338901
13/06/02 14:39:15 INFO mapred.JobClient:     HDFS: Number of read operations=2292
13/06/02 14:39:15 INFO mapred.JobClient:     HDFS: Number of large read operations=0
13/06/02 14:39:15 INFO mapred.JobClient:     HDFS: Number of write operations=1359
13/06/02 14:39:15 INFO mapred.JobClient:   Job Counters 
13/06/02 14:39:15 INFO mapred.JobClient:     Launched map tasks=674
13/06/02 14:39:15 INFO mapred.JobClient:     Data-local map tasks=674
13/06/02 14:39:15 INFO mapred.JobClient:     Total time spent by all maps in occupied slots (ms)=167927162
13/06/02 14:39:15 INFO mapred.JobClient:     Total time spent by all reduces in occupied slots (ms)=0
13/06/02 14:39:15 INFO mapred.JobClient:     Total time spent by all maps waiting after reserving slots (ms)=0
13/06/02 14:39:15 INFO mapred.JobClient:     Total time spent by all reduces waiting after reserving slots (ms)=0
13/06/02 14:39:15 INFO mapred.JobClient:   Map-Reduce Framework
13/06/02 14:39:15 INFO mapred.JobClient:     Map input records=100000017
13/06/02 14:39:15 INFO mapred.JobClient:     Map output records=200000034
13/06/02 14:39:15 INFO mapred.JobClient:     Input split bytes=71904
13/06/02 14:39:15 INFO mapred.JobClient:     Spilled Records=0
13/06/02 14:39:15 INFO mapred.JobClient:     CPU time spent (ms)=168508340
13/06/02 14:39:15 INFO mapred.JobClient:     Physical memory (bytes) snapshot=87047806976
13/06/02 14:39:15 INFO mapred.JobClient:     Virtual memory (bytes) snapshot=743411519488
13/06/02 14:39:15 INFO mapred.JobClient:     Total committed heap usage (bytes)=121565020160
13/06/02 14:39:15 INFO mapred.JobClient:   SEQAL
13/06/02 14:39:15 INFO mapred.JobClient:     EMITTED SAM RECORDS=200000034
13/06/02 14:39:15 INFO mapred.JobClient:     READS PROCESSED=200000034
13/06/02 14:39:15 INFO mapred.JobClient:     TIME_ANALYZE_PAIRS (CAL_+SW+REFGAP+PROCESS)=160163374
13/06/02 14:39:15 INFO mapred.JobClient:     TIME_BUILD_BWSA=863287
13/06/02 14:39:15 INFO mapred.JobClient:     TIME_CAL_PAC_POS_PE=7606356
13/06/02 14:39:15 INFO mapred.JobClient:     TIME_CAL_SA_REG_GAP=111880892
13/06/02 14:39:15 INFO mapred.JobClient:     TIME_COUNT_BASES=900509
13/06/02 14:39:15 INFO mapred.JobClient:     TIME_DESTROY_SEQUENCES=61999
13/06/02 14:39:15 INFO mapred.JobClient:     TIME_PAIRED_SW=507335
13/06/02 14:39:15 INFO mapred.JobClient:     TIME_REFINE_GAPPED=198099
13/06/02 14:39:15 INFO mapred.JobClient:     TIME_RESTORE_INDEX=166929
13/06/02 14:39:15 INFO mapred.JobClient:     TIME_RESTORE_REFERENCE=45191
13/06/02 14:39:15 INFO mapred.JobClient:     TOTAL BASES=20200003434
13/06/02 14:39:15 INFO mapred.JobClient:     TRIMMED BASES=0
13/06/02 14:39:15 INFO mapred.JobClient:   org.apache.hadoop.mapreduce.lib.input.FileInputFormatCounter
13/06/02 14:39:15 INFO mapred.JobClient:     BYTES_READ=45088896582
