Using hadoop executable /usr/bin/hadoop
INFO:seqal:Input: hg19_1075269_prq; Output: hg19_1075269_seqal_3; reference: references/hg19/hg19.tar
13/06/02 14:39:22 WARN util.NativeCodeLoader: Unable to load native-hadoop library for your platform... using builtin-java classes where applicable
INFO:seqal:Running in alignment-only mode (no rmdup).
DEPRECATED: Use of this script to execute mapred command is deprecated.
Instead use the mapred command for it.

13/06/02 14:39:25 WARN mapred.JobClient: Use GenericOptionsParser for parsing the arguments. Applications should implement Tool for the same.
13/06/02 14:39:25 WARN mapred.JobClient: No job jar file set.  User classes may not be found. See JobConf(Class) or JobConf#setJar(String).
13/06/02 14:39:25 INFO mapred.FileInputFormat: Total input paths to process : 6
13/06/02 14:39:26 INFO mapred.JobClient: Running job: job_201305291147_0049
13/06/02 14:39:27 INFO mapred.JobClient:  map 0% reduce 0%
13/06/02 14:45:48 INFO mapred.JobClient:  map 1% reduce 0%
13/06/02 14:52:48 INFO mapred.JobClient:  map 2% reduce 0%
13/06/02 14:59:45 INFO mapred.JobClient:  map 3% reduce 0%
13/06/02 15:06:08 INFO mapred.JobClient:  map 4% reduce 0%
13/06/02 15:12:38 INFO mapred.JobClient:  map 5% reduce 0%
13/06/02 15:19:22 INFO mapred.JobClient:  map 6% reduce 0%
13/06/02 15:26:03 INFO mapred.JobClient:  map 7% reduce 0%
13/06/02 15:33:21 INFO mapred.JobClient:  map 8% reduce 0%
13/06/02 15:39:44 INFO mapred.JobClient:  map 9% reduce 0%
13/06/02 15:46:54 INFO mapred.JobClient:  map 10% reduce 0%
13/06/02 15:54:14 INFO mapred.JobClient:  map 11% reduce 0%
13/06/02 16:00:56 INFO mapred.JobClient:  map 12% reduce 0%
13/06/02 16:07:47 INFO mapred.JobClient:  map 13% reduce 0%
13/06/02 16:15:57 INFO mapred.JobClient:  map 14% reduce 0%
13/06/02 16:23:44 INFO mapred.JobClient:  map 15% reduce 0%
13/06/02 16:31:27 INFO mapred.JobClient:  map 16% reduce 0%
13/06/02 16:38:04 INFO mapred.JobClient:  map 17% reduce 0%
13/06/02 16:44:06 INFO mapred.JobClient:  map 18% reduce 0%
13/06/02 16:51:31 INFO mapred.JobClient:  map 19% reduce 0%
13/06/02 16:58:00 INFO mapred.JobClient:  map 20% reduce 0%
13/06/02 17:04:36 INFO mapred.JobClient:  map 21% reduce 0%
13/06/02 17:11:06 INFO mapred.JobClient:  map 22% reduce 0%
13/06/02 17:17:43 INFO mapred.JobClient:  map 23% reduce 0%
13/06/02 17:24:45 INFO mapred.JobClient:  map 24% reduce 0%
13/06/02 17:31:09 INFO mapred.JobClient:  map 25% reduce 0%
13/06/02 17:38:21 INFO mapred.JobClient:  map 26% reduce 0%
13/06/02 17:45:22 INFO mapred.JobClient:  map 27% reduce 0%
13/06/02 17:52:43 INFO mapred.JobClient:  map 28% reduce 0%
13/06/02 17:59:19 INFO mapred.JobClient:  map 29% reduce 0%
13/06/02 18:06:42 INFO mapred.JobClient:  map 30% reduce 0%
13/06/02 18:14:53 INFO mapred.JobClient:  map 31% reduce 0%
13/06/02 18:22:40 INFO mapred.JobClient:  map 32% reduce 0%
13/06/02 18:29:58 INFO mapred.JobClient:  map 33% reduce 0%
13/06/02 18:36:13 INFO mapred.JobClient:  map 34% reduce 0%
13/06/02 18:43:08 INFO mapred.JobClient:  map 35% reduce 0%
13/06/02 18:50:01 INFO mapred.JobClient:  map 36% reduce 0%
13/06/02 18:56:28 INFO mapred.JobClient:  map 37% reduce 0%
13/06/02 19:02:59 INFO mapred.JobClient:  map 38% reduce 0%
13/06/02 19:09:51 INFO mapred.JobClient:  map 39% reduce 0%
13/06/02 19:16:22 INFO mapred.JobClient:  map 40% reduce 0%
13/06/02 19:23:29 INFO mapred.JobClient:  map 41% reduce 0%
13/06/02 19:30:12 INFO mapred.JobClient:  map 42% reduce 0%
13/06/02 19:37:15 INFO mapred.JobClient:  map 43% reduce 0%
13/06/02 19:44:41 INFO mapred.JobClient:  map 44% reduce 0%
13/06/02 19:51:19 INFO mapred.JobClient:  map 45% reduce 0%
13/06/02 19:58:19 INFO mapred.JobClient:  map 46% reduce 0%
13/06/02 20:06:31 INFO mapred.JobClient:  map 47% reduce 0%
13/06/02 20:14:24 INFO mapred.JobClient:  map 48% reduce 0%
13/06/02 20:22:24 INFO mapred.JobClient:  map 49% reduce 0%
13/06/02 20:28:58 INFO mapred.JobClient:  map 50% reduce 0%
13/06/02 20:35:17 INFO mapred.JobClient:  map 51% reduce 0%
13/06/02 20:42:40 INFO mapred.JobClient:  map 52% reduce 0%
13/06/02 20:49:06 INFO mapred.JobClient:  map 53% reduce 0%
13/06/02 20:55:48 INFO mapred.JobClient:  map 54% reduce 0%
13/06/02 21:02:28 INFO mapred.JobClient:  map 55% reduce 0%
13/06/02 21:09:11 INFO mapred.JobClient:  map 56% reduce 0%
13/06/02 21:16:04 INFO mapred.JobClient:  map 57% reduce 0%
13/06/02 21:22:37 INFO mapred.JobClient:  map 58% reduce 0%
13/06/02 21:29:39 INFO mapred.JobClient:  map 59% reduce 0%
13/06/02 21:36:51 INFO mapred.JobClient:  map 60% reduce 0%
13/06/02 21:44:02 INFO mapred.JobClient:  map 61% reduce 0%
13/06/02 21:50:44 INFO mapred.JobClient:  map 62% reduce 0%
13/06/02 21:58:05 INFO mapred.JobClient:  map 63% reduce 0%
13/06/02 22:06:17 INFO mapred.JobClient:  map 64% reduce 0%
13/06/02 22:14:04 INFO mapred.JobClient:  map 65% reduce 0%
13/06/02 22:21:36 INFO mapred.JobClient:  map 66% reduce 0%
13/06/02 22:27:52 INFO mapred.JobClient:  map 67% reduce 0%
13/06/02 22:34:54 INFO mapred.JobClient:  map 68% reduce 0%
13/06/02 22:41:56 INFO mapred.JobClient:  map 69% reduce 0%
13/06/02 22:48:22 INFO mapred.JobClient:  map 70% reduce 0%
13/06/02 22:55:02 INFO mapred.JobClient:  map 71% reduce 0%
13/06/02 23:01:49 INFO mapred.JobClient:  map 72% reduce 0%
13/06/02 23:08:18 INFO mapred.JobClient:  map 73% reduce 0%
13/06/02 23:15:33 INFO mapred.JobClient:  map 74% reduce 0%
13/06/02 23:22:10 INFO mapred.JobClient:  map 75% reduce 0%
13/06/02 23:29:27 INFO mapred.JobClient:  map 76% reduce 0%
13/06/02 23:36:36 INFO mapred.JobClient:  map 77% reduce 0%
13/06/02 23:43:33 INFO mapred.JobClient:  map 78% reduce 0%
13/06/02 23:50:29 INFO mapred.JobClient:  map 79% reduce 0%
13/06/02 23:58:32 INFO mapred.JobClient:  map 80% reduce 0%
13/06/03 00:06:30 INFO mapred.JobClient:  map 81% reduce 0%
13/06/03 00:14:25 INFO mapred.JobClient:  map 82% reduce 0%
13/06/03 00:20:59 INFO mapred.JobClient:  map 83% reduce 0%
13/06/03 00:27:14 INFO mapred.JobClient:  map 84% reduce 0%
13/06/03 00:34:39 INFO mapred.JobClient:  map 85% reduce 0%
13/06/03 00:41:10 INFO mapred.JobClient:  map 86% reduce 0%
13/06/03 00:47:56 INFO mapred.JobClient:  map 87% reduce 0%
13/06/03 00:54:34 INFO mapred.JobClient:  map 88% reduce 0%
13/06/03 01:01:12 INFO mapred.JobClient:  map 89% reduce 0%
13/06/03 01:08:14 INFO mapred.JobClient:  map 90% reduce 0%
13/06/03 01:14:53 INFO mapred.JobClient:  map 91% reduce 0%
13/06/03 01:22:00 INFO mapred.JobClient:  map 92% reduce 0%
13/06/03 01:29:22 INFO mapred.JobClient:  map 93% reduce 0%
13/06/03 01:36:38 INFO mapred.JobClient:  map 94% reduce 0%
13/06/03 01:43:11 INFO mapred.JobClient:  map 95% reduce 0%
13/06/03 01:50:44 INFO mapred.JobClient:  map 96% reduce 0%
13/06/03 01:59:08 INFO mapred.JobClient:  map 97% reduce 0%
13/06/03 02:06:44 INFO mapred.JobClient:  map 98% reduce 0%
13/06/03 02:14:18 INFO mapred.JobClient:  map 99% reduce 0%
13/06/03 02:21:02 INFO mapred.JobClient:  map 100% reduce 0%
13/06/03 02:21:03 INFO mapred.JobClient: Job complete: job_201305291147_0049
13/06/03 02:21:04 INFO mapred.JobClient: Counters: 39
13/06/03 02:21:04 INFO mapred.JobClient:   File System Counters
13/06/03 02:21:04 INFO mapred.JobClient:     FILE: Number of bytes read=0
13/06/03 02:21:04 INFO mapred.JobClient:     FILE: Number of bytes written=109202578
13/06/03 02:21:04 INFO mapred.JobClient:     FILE: Number of read operations=0
13/06/03 02:21:04 INFO mapred.JobClient:     FILE: Number of large read operations=0
13/06/03 02:21:04 INFO mapred.JobClient:     FILE: Number of write operations=0
13/06/03 02:21:04 INFO mapred.JobClient:     HDFS: Number of bytes read=45091692992
13/06/03 02:21:04 INFO mapred.JobClient:     HDFS: Number of bytes written=75261338901
13/06/03 02:21:04 INFO mapred.JobClient:     HDFS: Number of read operations=2270
13/06/03 02:21:04 INFO mapred.JobClient:     HDFS: Number of large read operations=0
13/06/03 02:21:04 INFO mapred.JobClient:     HDFS: Number of write operations=1351
13/06/03 02:21:04 INFO mapred.JobClient:   Job Counters 
13/06/03 02:21:04 INFO mapred.JobClient:     Launched map tasks=674
13/06/03 02:21:04 INFO mapred.JobClient:     Data-local map tasks=674
13/06/03 02:21:04 INFO mapred.JobClient:     Total time spent by all maps in occupied slots (ms)=168072377
13/06/03 02:21:04 INFO mapred.JobClient:     Total time spent by all reduces in occupied slots (ms)=0
13/06/03 02:21:04 INFO mapred.JobClient:     Total time spent by all maps waiting after reserving slots (ms)=0
13/06/03 02:21:04 INFO mapred.JobClient:     Total time spent by all reduces waiting after reserving slots (ms)=0
13/06/03 02:21:04 INFO mapred.JobClient:   Map-Reduce Framework
13/06/03 02:21:04 INFO mapred.JobClient:     Map input records=100000017
13/06/03 02:21:04 INFO mapred.JobClient:     Map output records=200000034
13/06/03 02:21:04 INFO mapred.JobClient:     Input split bytes=71904
13/06/03 02:21:04 INFO mapred.JobClient:     Spilled Records=0
13/06/03 02:21:04 INFO mapred.JobClient:     CPU time spent (ms)=168965600
13/06/03 02:21:04 INFO mapred.JobClient:     Physical memory (bytes) snapshot=91168014336
13/06/03 02:21:04 INFO mapred.JobClient:     Virtual memory (bytes) snapshot=747440709632
13/06/03 02:21:04 INFO mapred.JobClient:     Total committed heap usage (bytes)=121549750272
13/06/03 02:21:04 INFO mapred.JobClient:   SEQAL
13/06/03 02:21:04 INFO mapred.JobClient:     EMITTED SAM RECORDS=200000034
13/06/03 02:21:04 INFO mapred.JobClient:     READS PROCESSED=200000034
13/06/03 02:21:04 INFO mapred.JobClient:     TIME_ANALYZE_PAIRS (CAL_+SW+REFGAP+PROCESS)=160405026
13/06/03 02:21:04 INFO mapred.JobClient:     TIME_BUILD_BWSA=868888
13/06/03 02:21:04 INFO mapred.JobClient:     TIME_CAL_PAC_POS_PE=7623155
13/06/03 02:21:04 INFO mapred.JobClient:     TIME_CAL_SA_REG_GAP=112075404
13/06/03 02:21:04 INFO mapred.JobClient:     TIME_COUNT_BASES=893535
13/06/03 02:21:04 INFO mapred.JobClient:     TIME_DESTROY_SEQUENCES=62375
13/06/03 02:21:04 INFO mapred.JobClient:     TIME_PAIRED_SW=506459
13/06/03 02:21:04 INFO mapred.JobClient:     TIME_REFINE_GAPPED=177055
13/06/03 02:21:04 INFO mapred.JobClient:     TIME_RESTORE_INDEX=173509
13/06/03 02:21:04 INFO mapred.JobClient:     TIME_RESTORE_REFERENCE=45380
13/06/03 02:21:04 INFO mapred.JobClient:     TOTAL BASES=20200003434
13/06/03 02:21:04 INFO mapred.JobClient:     TRIMMED BASES=0
13/06/03 02:21:04 INFO mapred.JobClient:   org.apache.hadoop.mapreduce.lib.input.FileInputFormatCounter
13/06/03 02:21:04 INFO mapred.JobClient:     BYTES_READ=45088896582
