Using hadoop executable /usr/bin/hadoop
INFO:seqal:Input: hg19_1075269_prq; Output: hg19_1075269_seqal_3; reference: references/hg19/hg19.tar
13/05/28 03:28:49 WARN util.NativeCodeLoader: Unable to load native-hadoop library for your platform... using builtin-java classes where applicable
INFO:seqal:Running in alignment-only mode (no rmdup).
DEPRECATED: Use of this script to execute mapred command is deprecated.
Instead use the mapred command for it.

13/05/28 03:28:51 WARN mapred.JobClient: Use GenericOptionsParser for parsing the arguments. Applications should implement Tool for the same.
13/05/28 03:28:51 WARN mapred.JobClient: No job jar file set.  User classes may not be found. See JobConf(Class) or JobConf#setJar(String).
13/05/28 03:28:51 INFO mapred.FileInputFormat: Total input paths to process : 33
13/05/28 03:28:52 INFO mapred.JobClient: Running job: job_201305071141_0098
13/05/28 03:28:53 INFO mapred.JobClient:  map 0% reduce 0%
13/05/28 03:30:02 INFO mapred.JobClient:  map 1% reduce 0%
13/05/28 03:31:15 INFO mapred.JobClient:  map 2% reduce 0%
13/05/28 03:32:31 INFO mapred.JobClient:  map 3% reduce 0%
13/05/28 03:33:50 INFO mapred.JobClient:  map 4% reduce 0%
13/05/28 03:35:03 INFO mapred.JobClient:  map 5% reduce 0%
13/05/28 03:36:18 INFO mapred.JobClient:  map 6% reduce 0%
13/05/28 03:37:31 INFO mapred.JobClient:  map 7% reduce 0%
13/05/28 03:38:48 INFO mapred.JobClient:  map 8% reduce 0%
13/05/28 03:40:05 INFO mapred.JobClient:  map 9% reduce 0%
13/05/28 03:41:19 INFO mapred.JobClient:  map 10% reduce 0%
13/05/28 03:42:35 INFO mapred.JobClient:  map 11% reduce 0%
13/05/28 03:43:52 INFO mapred.JobClient:  map 12% reduce 0%
13/05/28 03:45:06 INFO mapred.JobClient:  map 13% reduce 0%
13/05/28 03:46:26 INFO mapred.JobClient:  map 14% reduce 0%
13/05/28 03:47:46 INFO mapred.JobClient:  map 15% reduce 0%
13/05/28 03:48:58 INFO mapred.JobClient:  map 16% reduce 0%
13/05/28 03:50:14 INFO mapred.JobClient:  map 17% reduce 0%
13/05/28 03:51:34 INFO mapred.JobClient:  map 18% reduce 0%
13/05/28 03:52:49 INFO mapred.JobClient:  map 19% reduce 0%
13/05/28 03:54:05 INFO mapred.JobClient:  map 20% reduce 0%
13/05/28 03:55:18 INFO mapred.JobClient:  map 21% reduce 0%
13/05/28 03:56:37 INFO mapred.JobClient:  map 22% reduce 0%
13/05/28 03:57:49 INFO mapred.JobClient:  map 23% reduce 0%
13/05/28 03:59:05 INFO mapred.JobClient:  map 24% reduce 0%
13/05/28 04:00:22 INFO mapred.JobClient:  map 25% reduce 0%
13/05/28 04:01:36 INFO mapred.JobClient:  map 26% reduce 0%
13/05/28 04:02:55 INFO mapred.JobClient:  map 27% reduce 0%
13/05/28 04:04:09 INFO mapred.JobClient:  map 28% reduce 0%
13/05/28 04:05:27 INFO mapred.JobClient:  map 29% reduce 0%
13/05/28 04:06:45 INFO mapred.JobClient:  map 30% reduce 0%
13/05/28 04:07:58 INFO mapred.JobClient:  map 31% reduce 0%
13/05/28 04:09:13 INFO mapred.JobClient:  map 32% reduce 0%
13/05/28 04:10:31 INFO mapred.JobClient:  map 33% reduce 0%
13/05/28 04:11:47 INFO mapred.JobClient:  map 34% reduce 0%
13/05/28 04:13:03 INFO mapred.JobClient:  map 35% reduce 0%
13/05/28 04:14:19 INFO mapred.JobClient:  map 36% reduce 0%
13/05/28 04:15:38 INFO mapred.JobClient:  map 37% reduce 0%
13/05/28 04:16:54 INFO mapred.JobClient:  map 38% reduce 0%
13/05/28 04:18:09 INFO mapred.JobClient:  map 39% reduce 0%
13/05/28 04:19:24 INFO mapred.JobClient:  map 40% reduce 0%
13/05/28 04:20:38 INFO mapred.JobClient:  map 41% reduce 0%
13/05/28 04:21:57 INFO mapred.JobClient:  map 42% reduce 0%
13/05/28 04:23:14 INFO mapred.JobClient:  map 43% reduce 0%
13/05/28 04:24:29 INFO mapred.JobClient:  map 44% reduce 0%
13/05/28 04:25:41 INFO mapred.JobClient:  map 45% reduce 0%
13/05/28 04:27:00 INFO mapred.JobClient:  map 46% reduce 0%
13/05/28 04:28:18 INFO mapred.JobClient:  map 47% reduce 0%
13/05/28 04:29:35 INFO mapred.JobClient:  map 48% reduce 0%
13/05/28 04:30:52 INFO mapred.JobClient:  map 49% reduce 0%
13/05/28 04:32:04 INFO mapred.JobClient:  map 50% reduce 0%
13/05/28 04:33:19 INFO mapred.JobClient:  map 51% reduce 0%
13/05/28 04:34:35 INFO mapred.JobClient:  map 52% reduce 0%
13/05/28 04:35:51 INFO mapred.JobClient:  map 53% reduce 0%
13/05/28 04:37:10 INFO mapred.JobClient:  map 54% reduce 0%
13/05/28 04:38:28 INFO mapred.JobClient:  map 55% reduce 0%
13/05/28 04:39:41 INFO mapred.JobClient:  map 56% reduce 0%
13/05/28 04:40:56 INFO mapred.JobClient:  map 57% reduce 0%
13/05/28 04:42:16 INFO mapred.JobClient:  map 58% reduce 0%
13/05/28 04:43:30 INFO mapred.JobClient:  map 59% reduce 0%
13/05/28 04:44:46 INFO mapred.JobClient:  map 60% reduce 0%
13/05/28 04:46:03 INFO mapred.JobClient:  map 61% reduce 0%
13/05/28 04:47:20 INFO mapred.JobClient:  map 62% reduce 0%
13/05/28 04:48:37 INFO mapred.JobClient:  map 63% reduce 0%
13/05/28 04:49:53 INFO mapred.JobClient:  map 64% reduce 0%
13/05/28 04:51:09 INFO mapred.JobClient:  map 65% reduce 0%
13/05/28 04:52:27 INFO mapred.JobClient:  map 66% reduce 0%
13/05/28 04:53:40 INFO mapred.JobClient:  map 67% reduce 0%
13/05/28 04:54:54 INFO mapred.JobClient:  map 68% reduce 0%
13/05/28 04:56:16 INFO mapred.JobClient:  map 69% reduce 0%
13/05/28 04:57:29 INFO mapred.JobClient:  map 70% reduce 0%
13/05/28 04:58:44 INFO mapred.JobClient:  map 71% reduce 0%
13/05/28 05:00:04 INFO mapred.JobClient:  map 72% reduce 0%
13/05/28 05:01:17 INFO mapred.JobClient:  map 73% reduce 0%
13/05/28 05:02:35 INFO mapred.JobClient:  map 74% reduce 0%
13/05/28 05:03:56 INFO mapred.JobClient:  map 75% reduce 0%
13/05/28 05:05:09 INFO mapred.JobClient:  map 76% reduce 0%
13/05/28 05:06:23 INFO mapred.JobClient:  map 77% reduce 0%
13/05/28 05:07:41 INFO mapred.JobClient:  map 78% reduce 0%
13/05/28 05:08:57 INFO mapred.JobClient:  map 79% reduce 0%
13/05/28 05:10:12 INFO mapred.JobClient:  map 80% reduce 0%
13/05/28 05:11:32 INFO mapred.JobClient:  map 81% reduce 0%
13/05/28 05:12:45 INFO mapred.JobClient:  map 82% reduce 0%
13/05/28 05:14:01 INFO mapred.JobClient:  map 83% reduce 0%
13/05/28 05:15:20 INFO mapred.JobClient:  map 84% reduce 0%
13/05/28 05:16:31 INFO mapred.JobClient:  map 85% reduce 0%
13/05/28 05:17:47 INFO mapred.JobClient:  map 86% reduce 0%
13/05/28 05:19:09 INFO mapred.JobClient:  map 87% reduce 0%
13/05/28 05:20:21 INFO mapred.JobClient:  map 88% reduce 0%
13/05/28 05:21:34 INFO mapred.JobClient:  map 89% reduce 0%
13/05/28 05:22:57 INFO mapred.JobClient:  map 90% reduce 0%
13/05/28 05:24:14 INFO mapred.JobClient:  map 91% reduce 0%
13/05/28 05:25:26 INFO mapred.JobClient:  map 92% reduce 0%
13/05/28 05:26:41 INFO mapred.JobClient:  map 93% reduce 0%
13/05/28 05:27:44 INFO mapred.JobClient:  map 94% reduce 0%
13/05/28 05:28:38 INFO mapred.JobClient:  map 95% reduce 0%
13/05/28 05:29:26 INFO mapred.JobClient:  map 96% reduce 0%
13/05/28 05:30:06 INFO mapred.JobClient:  map 97% reduce 0%
13/05/28 05:30:40 INFO mapred.JobClient:  map 98% reduce 0%
13/05/28 05:31:09 INFO mapred.JobClient:  map 99% reduce 0%
13/05/28 05:32:23 INFO mapred.JobClient:  map 100% reduce 0%
13/05/28 05:32:25 INFO mapred.JobClient: Job complete: job_201305071141_0098
13/05/28 05:32:25 INFO mapred.JobClient: Counters: 40
13/05/28 05:32:25 INFO mapred.JobClient:   File System Counters
13/05/28 05:32:25 INFO mapred.JobClient:     FILE: Number of bytes read=0
13/05/28 05:32:25 INFO mapred.JobClient:     FILE: Number of bytes written=112623310
13/05/28 05:32:25 INFO mapred.JobClient:     FILE: Number of read operations=0
13/05/28 05:32:25 INFO mapred.JobClient:     FILE: Number of large read operations=0
13/05/28 05:32:25 INFO mapred.JobClient:     FILE: Number of write operations=0
13/05/28 05:32:25 INFO mapred.JobClient:     HDFS: Number of bytes read=45091670657
13/05/28 05:32:25 INFO mapred.JobClient:     HDFS: Number of bytes written=75261420953
13/05/28 05:32:25 INFO mapred.JobClient:     HDFS: Number of read operations=2360
13/05/28 05:32:25 INFO mapred.JobClient:     HDFS: Number of large read operations=0
13/05/28 05:32:25 INFO mapred.JobClient:     HDFS: Number of write operations=1388
13/05/28 05:32:25 INFO mapred.JobClient:   Job Counters 
13/05/28 05:32:25 INFO mapred.JobClient:     Launched map tasks=701
13/05/28 05:32:25 INFO mapred.JobClient:     Data-local map tasks=694
13/05/28 05:32:25 INFO mapred.JobClient:     Rack-local map tasks=7
13/05/28 05:32:25 INFO mapred.JobClient:     Total time spent by all maps in occupied slots (ms)=162135278
13/05/28 05:32:25 INFO mapred.JobClient:     Total time spent by all reduces in occupied slots (ms)=0
13/05/28 05:32:25 INFO mapred.JobClient:     Total time spent by all maps waiting after reserving slots (ms)=0
13/05/28 05:32:25 INFO mapred.JobClient:     Total time spent by all reduces waiting after reserving slots (ms)=0
13/05/28 05:32:25 INFO mapred.JobClient:   Map-Reduce Framework
13/05/28 05:32:25 INFO mapred.JobClient:     Map input records=100000017
13/05/28 05:32:25 INFO mapred.JobClient:     Map output records=200000034
13/05/28 05:32:25 INFO mapred.JobClient:     Input split bytes=74151
13/05/28 05:32:25 INFO mapred.JobClient:     Spilled Records=0
13/05/28 05:32:25 INFO mapred.JobClient:     CPU time spent (ms)=158666320
13/05/28 05:32:25 INFO mapred.JobClient:     Physical memory (bytes) snapshot=89911209984
13/05/28 05:32:25 INFO mapred.JobClient:     Virtual memory (bytes) snapshot=750368755712
13/05/28 05:32:25 INFO mapred.JobClient:     Total committed heap usage (bytes)=81722802176
13/05/28 05:32:25 INFO mapred.JobClient:   SEQAL
13/05/28 05:32:25 INFO mapred.JobClient:     EMITTED SAM RECORDS=200000034
13/05/28 05:32:25 INFO mapred.JobClient:     READS PROCESSED=200000034
13/05/28 05:32:25 INFO mapred.JobClient:     TIME_ANALYZE_PAIRS (CAL_+SW+REFGAP+PROCESS)=153911875
13/05/28 05:32:25 INFO mapred.JobClient:     TIME_BUILD_BWSA=916884
13/05/28 05:32:25 INFO mapred.JobClient:     TIME_CAL_PAC_POS_PE=7414997
13/05/28 05:32:25 INFO mapred.JobClient:     TIME_CAL_SA_REG_GAP=105307239
13/05/28 05:32:25 INFO mapred.JobClient:     TIME_COUNT_BASES=934870
13/05/28 05:32:25 INFO mapred.JobClient:     TIME_DESTROY_SEQUENCES=64926
13/05/28 05:32:25 INFO mapred.JobClient:     TIME_PAIRED_SW=515400
13/05/28 05:32:25 INFO mapred.JobClient:     TIME_REFINE_GAPPED=193946
13/05/28 05:32:25 INFO mapred.JobClient:     TIME_RESTORE_INDEX=243537
13/05/28 05:32:25 INFO mapred.JobClient:     TIME_RESTORE_REFERENCE=237642
13/05/28 05:32:25 INFO mapred.JobClient:     TOTAL BASES=20200003434
13/05/28 05:32:25 INFO mapred.JobClient:     TRIMMED BASES=0
13/05/28 05:32:25 INFO mapred.JobClient:   org.apache.hadoop.mapreduce.lib.input.FileInputFormatCounter
13/05/28 05:32:25 INFO mapred.JobClient:     BYTES_READ=45088896582
