Using hadoop executable /usr/bin/hadoop
INFO:seqal:Input: dm3_66666666_prq; Output: dm3_66666666_seqal_3; reference: references/dm3/dm3.tar
13/06/01 05:14:36 WARN util.NativeCodeLoader: Unable to load native-hadoop library for your platform... using builtin-java classes where applicable
INFO:seqal:Running in alignment-only mode (no rmdup).
DEPRECATED: Use of this script to execute mapred command is deprecated.
Instead use the mapred command for it.

13/06/01 05:14:40 WARN mapred.JobClient: Use GenericOptionsParser for parsing the arguments. Applications should implement Tool for the same.
13/06/01 05:14:41 WARN mapred.JobClient: No job jar file set.  User classes may not be found. See JobConf(Class) or JobConf#setJar(String).
13/06/01 05:14:41 INFO mapred.FileInputFormat: Total input paths to process : 6
13/06/01 05:14:42 INFO mapred.JobClient: Running job: job_201305291147_0045
13/06/01 05:14:43 INFO mapred.JobClient:  map 0% reduce 0%
13/06/01 05:18:31 INFO mapred.JobClient:  map 1% reduce 0%
13/06/01 05:22:10 INFO mapred.JobClient:  map 2% reduce 0%
13/06/01 05:26:06 INFO mapred.JobClient:  map 3% reduce 0%
13/06/01 05:29:34 INFO mapred.JobClient:  map 4% reduce 0%
13/06/01 05:33:27 INFO mapred.JobClient:  map 5% reduce 0%
13/06/01 05:37:25 INFO mapred.JobClient:  map 6% reduce 0%
13/06/01 05:40:53 INFO mapred.JobClient:  map 7% reduce 0%
13/06/01 05:44:50 INFO mapred.JobClient:  map 8% reduce 0%
13/06/01 05:48:34 INFO mapred.JobClient:  map 9% reduce 0%
13/06/01 05:52:10 INFO mapred.JobClient:  map 10% reduce 0%
13/06/01 05:56:31 INFO mapred.JobClient:  map 11% reduce 0%
13/06/01 06:02:16 INFO mapred.JobClient:  map 12% reduce 0%
13/06/01 06:10:01 INFO mapred.JobClient:  map 13% reduce 0%
13/06/01 06:13:57 INFO mapred.JobClient:  map 14% reduce 0%
13/06/01 06:17:54 INFO mapred.JobClient:  map 15% reduce 0%
13/06/01 06:21:48 INFO mapred.JobClient:  map 16% reduce 0%
13/06/01 06:25:32 INFO mapred.JobClient:  map 17% reduce 0%
13/06/01 06:29:11 INFO mapred.JobClient:  map 18% reduce 0%
13/06/01 06:32:52 INFO mapred.JobClient:  map 19% reduce 0%
13/06/01 06:36:32 INFO mapred.JobClient:  map 20% reduce 0%
13/06/01 06:40:07 INFO mapred.JobClient:  map 21% reduce 0%
13/06/01 06:44:08 INFO mapred.JobClient:  map 22% reduce 0%
13/06/01 06:47:40 INFO mapred.JobClient:  map 23% reduce 0%
13/06/01 06:51:27 INFO mapred.JobClient:  map 24% reduce 0%
13/06/01 06:55:19 INFO mapred.JobClient:  map 25% reduce 0%
13/06/01 06:58:53 INFO mapred.JobClient:  map 26% reduce 0%
13/06/01 07:02:40 INFO mapred.JobClient:  map 27% reduce 0%
13/06/01 07:07:39 INFO mapred.JobClient:  map 28% reduce 0%
13/06/01 07:14:42 INFO mapred.JobClient:  map 29% reduce 0%
13/06/01 07:20:36 INFO mapred.JobClient:  map 30% reduce 0%
13/06/01 07:24:15 INFO mapred.JobClient:  map 31% reduce 0%
13/06/01 07:28:22 INFO mapred.JobClient:  map 32% reduce 0%
13/06/01 07:32:06 INFO mapred.JobClient:  map 33% reduce 0%
13/06/01 07:35:53 INFO mapred.JobClient:  map 34% reduce 0%
13/06/01 07:39:31 INFO mapred.JobClient:  map 35% reduce 0%
13/06/01 07:43:20 INFO mapred.JobClient:  map 36% reduce 0%
13/06/01 07:47:07 INFO mapred.JobClient:  map 37% reduce 0%
13/06/01 07:50:58 INFO mapred.JobClient:  map 38% reduce 0%
13/06/01 07:54:56 INFO mapred.JobClient:  map 39% reduce 0%
13/06/01 07:58:35 INFO mapred.JobClient:  map 40% reduce 0%
13/06/01 08:02:30 INFO mapred.JobClient:  map 41% reduce 0%
13/06/01 08:06:13 INFO mapred.JobClient:  map 42% reduce 0%
13/06/01 08:09:58 INFO mapred.JobClient:  map 43% reduce 0%
13/06/01 08:14:13 INFO mapred.JobClient:  map 44% reduce 0%
13/06/01 08:20:00 INFO mapred.JobClient:  map 45% reduce 0%
13/06/01 08:27:53 INFO mapred.JobClient:  map 46% reduce 0%
13/06/01 08:31:39 INFO mapred.JobClient:  map 47% reduce 0%
13/06/01 08:35:32 INFO mapred.JobClient:  map 48% reduce 0%
13/06/01 08:39:27 INFO mapred.JobClient:  map 49% reduce 0%
13/06/01 08:43:15 INFO mapred.JobClient:  map 50% reduce 0%
13/06/01 08:46:45 INFO mapred.JobClient:  map 51% reduce 0%
13/06/01 08:50:24 INFO mapred.JobClient:  map 52% reduce 0%
13/06/01 08:54:13 INFO mapred.JobClient:  map 53% reduce 0%
13/06/01 08:57:46 INFO mapred.JobClient:  map 54% reduce 0%
13/06/01 09:01:50 INFO mapred.JobClient:  map 55% reduce 0%
13/06/01 09:05:27 INFO mapred.JobClient:  map 56% reduce 0%
13/06/01 09:09:03 INFO mapred.JobClient:  map 57% reduce 0%
13/06/01 09:12:58 INFO mapred.JobClient:  map 58% reduce 0%
13/06/01 09:16:44 INFO mapred.JobClient:  map 59% reduce 0%
13/06/01 09:20:16 INFO mapred.JobClient:  map 60% reduce 0%
13/06/01 09:25:11 INFO mapred.JobClient:  map 61% reduce 0%
13/06/01 09:32:20 INFO mapred.JobClient:  map 62% reduce 0%
13/06/01 09:38:19 INFO mapred.JobClient:  map 63% reduce 0%
13/06/01 09:42:02 INFO mapred.JobClient:  map 64% reduce 0%
13/06/01 09:45:58 INFO mapred.JobClient:  map 65% reduce 0%
13/06/01 09:49:54 INFO mapred.JobClient:  map 66% reduce 0%
13/06/01 09:53:33 INFO mapred.JobClient:  map 67% reduce 0%
13/06/01 09:57:06 INFO mapred.JobClient:  map 68% reduce 0%
13/06/01 10:00:53 INFO mapred.JobClient:  map 69% reduce 0%
13/06/01 10:04:25 INFO mapred.JobClient:  map 70% reduce 0%
13/06/01 10:08:10 INFO mapred.JobClient:  map 71% reduce 0%
13/06/01 10:12:05 INFO mapred.JobClient:  map 72% reduce 0%
13/06/01 10:15:34 INFO mapred.JobClient:  map 73% reduce 0%
13/06/01 10:19:28 INFO mapred.JobClient:  map 74% reduce 0%
13/06/01 10:23:12 INFO mapred.JobClient:  map 75% reduce 0%
13/06/01 10:26:52 INFO mapred.JobClient:  map 76% reduce 0%
13/06/01 10:31:04 INFO mapred.JobClient:  map 77% reduce 0%
13/06/01 10:36:42 INFO mapred.JobClient:  map 78% reduce 0%
13/06/01 10:44:30 INFO mapred.JobClient:  map 79% reduce 0%
13/06/01 10:48:26 INFO mapred.JobClient:  map 80% reduce 0%
13/06/01 10:52:16 INFO mapred.JobClient:  map 81% reduce 0%
13/06/01 10:56:10 INFO mapred.JobClient:  map 82% reduce 0%
13/06/01 10:59:56 INFO mapred.JobClient:  map 83% reduce 0%
13/06/01 11:03:29 INFO mapred.JobClient:  map 84% reduce 0%
13/06/01 11:07:13 INFO mapred.JobClient:  map 85% reduce 0%
13/06/01 11:10:49 INFO mapred.JobClient:  map 86% reduce 0%
13/06/01 11:14:23 INFO mapred.JobClient:  map 87% reduce 0%
13/06/01 11:18:24 INFO mapred.JobClient:  map 88% reduce 0%
13/06/01 11:21:58 INFO mapred.JobClient:  map 89% reduce 0%
13/06/01 11:25:41 INFO mapred.JobClient:  map 90% reduce 0%
13/06/01 11:29:35 INFO mapred.JobClient:  map 91% reduce 0%
13/06/01 11:33:16 INFO mapred.JobClient:  map 92% reduce 0%
13/06/01 11:36:55 INFO mapred.JobClient:  map 93% reduce 0%
13/06/01 11:41:52 INFO mapred.JobClient:  map 94% reduce 0%
13/06/01 11:48:51 INFO mapred.JobClient:  map 95% reduce 0%
13/06/01 11:54:57 INFO mapred.JobClient:  map 96% reduce 0%
13/06/01 11:58:35 INFO mapred.JobClient:  map 97% reduce 0%
13/06/01 12:02:39 INFO mapred.JobClient:  map 98% reduce 0%
13/06/01 12:06:26 INFO mapred.JobClient:  map 99% reduce 0%
13/06/01 12:10:48 INFO mapred.JobClient:  map 100% reduce 0%
13/06/01 12:10:50 INFO mapred.JobClient: Job complete: job_201305291147_0045
13/06/01 12:10:50 INFO mapred.JobClient: Counters: 39
13/06/01 12:10:50 INFO mapred.JobClient:   File System Counters
13/06/01 12:10:50 INFO mapred.JobClient:     FILE: Number of bytes read=0
13/06/01 12:10:50 INFO mapred.JobClient:     FILE: Number of bytes written=109201234
13/06/01 12:10:50 INFO mapred.JobClient:     FILE: Number of read operations=0
13/06/01 12:10:50 INFO mapred.JobClient:     FILE: Number of large read operations=0
13/06/01 12:10:50 INFO mapred.JobClient:     FILE: Number of write operations=0
13/06/01 12:10:50 INFO mapred.JobClient:     HDFS: Number of bytes read=45091676701
13/06/01 12:10:50 INFO mapred.JobClient:     HDFS: Number of bytes written=71747977177
13/06/01 12:10:50 INFO mapred.JobClient:     HDFS: Number of read operations=2318
13/06/01 12:10:50 INFO mapred.JobClient:     HDFS: Number of large read operations=0
13/06/01 12:10:50 INFO mapred.JobClient:     HDFS: Number of write operations=1368
13/06/01 12:10:50 INFO mapred.JobClient:   Job Counters 
13/06/01 12:10:50 INFO mapred.JobClient:     Launched map tasks=673
13/06/01 12:10:50 INFO mapred.JobClient:     Data-local map tasks=673
13/06/01 12:10:50 INFO mapred.JobClient:     Total time spent by all maps in occupied slots (ms)=99691850
13/06/01 12:10:50 INFO mapred.JobClient:     Total time spent by all reduces in occupied slots (ms)=0
13/06/01 12:10:50 INFO mapred.JobClient:     Total time spent by all maps waiting after reserving slots (ms)=0
13/06/01 12:10:50 INFO mapred.JobClient:     Total time spent by all reduces waiting after reserving slots (ms)=0
13/06/01 12:10:50 INFO mapred.JobClient:   Map-Reduce Framework
13/06/01 12:10:50 INFO mapred.JobClient:     Map input records=99999990
13/06/01 12:10:50 INFO mapred.JobClient:     Map output records=199999980
13/06/01 12:10:50 INFO mapred.JobClient:     Input split bytes=71904
13/06/01 12:10:50 INFO mapred.JobClient:     Spilled Records=0
13/06/01 12:10:50 INFO mapred.JobClient:     CPU time spent (ms)=99512560
13/06/01 12:10:50 INFO mapred.JobClient:     Physical memory (bytes) snapshot=87668883456
13/06/01 12:10:50 INFO mapred.JobClient:     Virtual memory (bytes) snapshot=743253655552
13/06/01 12:10:50 INFO mapred.JobClient:     Total committed heap usage (bytes)=122063618048
13/06/01 12:10:50 INFO mapred.JobClient:   SEQAL
13/06/01 12:10:50 INFO mapred.JobClient:     EMITTED SAM RECORDS=199999980
13/06/01 12:10:50 INFO mapred.JobClient:     READS PROCESSED=199999980
13/06/01 12:10:50 INFO mapred.JobClient:     TIME_ANALYZE_PAIRS (CAL_+SW+REFGAP+PROCESS)=91932984
13/06/01 12:10:50 INFO mapred.JobClient:     TIME_BUILD_BWSA=880373
13/06/01 12:10:50 INFO mapred.JobClient:     TIME_CAL_PAC_POS_PE=6355283
13/06/01 12:10:50 INFO mapred.JobClient:     TIME_CAL_SA_REG_GAP=46716985
13/06/01 12:10:50 INFO mapred.JobClient:     TIME_COUNT_BASES=897612
13/06/01 12:10:50 INFO mapred.JobClient:     TIME_DESTROY_SEQUENCES=59627
13/06/01 12:10:50 INFO mapred.JobClient:     TIME_PAIRED_SW=1176359
13/06/01 12:10:50 INFO mapred.JobClient:     TIME_REFINE_GAPPED=170781
13/06/01 12:10:50 INFO mapred.JobClient:     TIME_RESTORE_INDEX=10863
13/06/01 12:10:50 INFO mapred.JobClient:     TIME_RESTORE_REFERENCE=13283
13/06/01 12:10:50 INFO mapred.JobClient:     TOTAL BASES=20199997980
13/06/01 12:10:50 INFO mapred.JobClient:     TRIMMED BASES=0
13/06/01 12:10:50 INFO mapred.JobClient:   org.apache.hadoop.mapreduce.lib.input.FileInputFormatCounter
13/06/01 12:10:50 INFO mapred.JobClient:     BYTES_READ=45088884387
