Using hadoop executable /usr/bin/hadoop
Using seal jar /home/ubuntu/.virtualenvs/master/local/lib/python2.7/site-packages/seal/seal.jar
13/05/31 14:29:20 WARN mapred.JobClient: Use GenericOptionsParser for parsing the arguments. Applications should implement Tool for the same.
13/05/31 14:29:20 INFO input.FileInputFormat: Total input paths to process : 2
13/05/31 14:29:21 INFO mapred.JobClient: Running job: job_201305291147_0042
13/05/31 14:29:22 INFO mapred.JobClient:  map 0% reduce 0%
13/05/31 14:29:58 INFO mapred.JobClient:  map 1% reduce 0%
13/05/31 14:30:43 INFO mapred.JobClient:  map 2% reduce 0%
13/05/31 14:31:29 INFO mapred.JobClient:  map 3% reduce 0%
13/05/31 14:32:19 INFO mapred.JobClient:  map 4% reduce 0%
13/05/31 14:33:09 INFO mapred.JobClient:  map 5% reduce 0%
13/05/31 14:33:27 INFO mapred.JobClient:  map 6% reduce 0%
13/05/31 14:33:40 INFO mapred.JobClient:  map 6% reduce 1%
13/05/31 14:34:03 INFO mapred.JobClient:  map 7% reduce 1%
13/05/31 14:34:15 INFO mapred.JobClient:  map 7% reduce 2%
13/05/31 14:34:34 INFO mapred.JobClient:  map 8% reduce 2%
13/05/31 14:35:02 INFO mapred.JobClient:  map 9% reduce 2%
13/05/31 14:35:13 INFO mapred.JobClient:  map 9% reduce 3%
13/05/31 14:35:29 INFO mapred.JobClient:  map 10% reduce 3%
13/05/31 14:35:57 INFO mapred.JobClient:  map 11% reduce 3%
13/05/31 14:36:24 INFO mapred.JobClient:  map 12% reduce 3%
13/05/31 14:36:34 INFO mapred.JobClient:  map 12% reduce 4%
13/05/31 14:36:53 INFO mapred.JobClient:  map 13% reduce 4%
13/05/31 14:37:19 INFO mapred.JobClient:  map 14% reduce 4%
13/05/31 14:37:48 INFO mapred.JobClient:  map 15% reduce 4%
13/05/31 14:37:56 INFO mapred.JobClient:  map 15% reduce 5%
13/05/31 14:38:16 INFO mapred.JobClient:  map 16% reduce 5%
13/05/31 14:38:40 INFO mapred.JobClient:  map 17% reduce 5%
13/05/31 14:39:08 INFO mapred.JobClient:  map 18% reduce 5%
13/05/31 14:39:18 INFO mapred.JobClient:  map 18% reduce 6%
13/05/31 14:39:37 INFO mapred.JobClient:  map 19% reduce 6%
13/05/31 14:40:03 INFO mapred.JobClient:  map 20% reduce 6%
13/05/31 14:40:32 INFO mapred.JobClient:  map 21% reduce 6%
13/05/31 14:40:41 INFO mapred.JobClient:  map 21% reduce 7%
13/05/31 14:41:01 INFO mapred.JobClient:  map 22% reduce 7%
13/05/31 14:41:20 INFO mapred.JobClient:  map 23% reduce 7%
13/05/31 14:41:50 INFO mapred.JobClient:  map 24% reduce 7%
13/05/31 14:41:59 INFO mapred.JobClient:  map 24% reduce 8%
13/05/31 14:42:18 INFO mapred.JobClient:  map 25% reduce 8%
13/05/31 14:42:47 INFO mapred.JobClient:  map 26% reduce 8%
13/05/31 14:43:16 INFO mapred.JobClient:  map 27% reduce 8%
13/05/31 14:43:23 INFO mapred.JobClient:  map 27% reduce 9%
13/05/31 14:43:39 INFO mapred.JobClient:  map 28% reduce 9%
13/05/31 14:44:09 INFO mapred.JobClient:  map 29% reduce 9%
13/05/31 14:44:37 INFO mapred.JobClient:  map 30% reduce 9%
13/05/31 14:44:44 INFO mapred.JobClient:  map 30% reduce 10%
13/05/31 14:45:00 INFO mapred.JobClient:  map 31% reduce 10%
13/05/31 14:45:25 INFO mapred.JobClient:  map 32% reduce 10%
13/05/31 14:45:50 INFO mapred.JobClient:  map 33% reduce 10%
13/05/31 14:45:58 INFO mapred.JobClient:  map 33% reduce 11%
13/05/31 14:46:15 INFO mapred.JobClient:  map 34% reduce 11%
13/05/31 14:46:45 INFO mapred.JobClient:  map 35% reduce 11%
13/05/31 14:47:14 INFO mapred.JobClient:  map 36% reduce 11%
13/05/31 14:47:22 INFO mapred.JobClient:  map 36% reduce 12%
13/05/31 14:47:39 INFO mapred.JobClient:  map 37% reduce 12%
13/05/31 14:48:08 INFO mapred.JobClient:  map 38% reduce 12%
13/05/31 14:48:32 INFO mapred.JobClient:  map 39% reduce 12%
13/05/31 14:48:44 INFO mapred.JobClient:  map 39% reduce 13%
13/05/31 14:49:01 INFO mapred.JobClient:  map 40% reduce 13%
13/05/31 14:49:29 INFO mapred.JobClient:  map 41% reduce 13%
13/05/31 14:49:55 INFO mapred.JobClient:  map 42% reduce 13%
13/05/31 14:50:05 INFO mapred.JobClient:  map 42% reduce 14%
13/05/31 14:50:23 INFO mapred.JobClient:  map 43% reduce 14%
13/05/31 14:50:50 INFO mapred.JobClient:  map 44% reduce 14%
13/05/31 14:51:11 INFO mapred.JobClient:  map 45% reduce 14%
13/05/31 14:51:20 INFO mapred.JobClient:  map 45% reduce 15%
13/05/31 14:51:40 INFO mapred.JobClient:  map 46% reduce 15%
13/05/31 14:52:12 INFO mapred.JobClient:  map 47% reduce 15%
13/05/31 14:52:37 INFO mapred.JobClient:  map 48% reduce 15%
13/05/31 14:52:46 INFO mapred.JobClient:  map 48% reduce 16%
13/05/31 14:53:05 INFO mapred.JobClient:  map 49% reduce 16%
13/05/31 14:53:35 INFO mapred.JobClient:  map 50% reduce 16%
13/05/31 14:54:13 INFO mapred.JobClient:  map 51% reduce 16%
13/05/31 14:54:29 INFO mapred.JobClient:  map 51% reduce 17%
13/05/31 14:54:56 INFO mapred.JobClient:  map 52% reduce 17%
13/05/31 14:55:35 INFO mapred.JobClient:  map 53% reduce 17%
13/05/31 14:56:19 INFO mapred.JobClient:  map 54% reduce 17%
13/05/31 14:56:37 INFO mapred.JobClient:  map 54% reduce 18%
13/05/31 14:57:04 INFO mapred.JobClient:  map 55% reduce 18%
13/05/31 14:57:33 INFO mapred.JobClient:  map 56% reduce 18%
13/05/31 14:58:01 INFO mapred.JobClient:  map 57% reduce 18%
13/05/31 14:58:11 INFO mapred.JobClient:  map 57% reduce 19%
13/05/31 14:58:29 INFO mapred.JobClient:  map 58% reduce 19%
13/05/31 14:58:57 INFO mapred.JobClient:  map 59% reduce 19%
13/05/31 14:59:24 INFO mapred.JobClient:  map 60% reduce 19%
13/05/31 14:59:32 INFO mapred.JobClient:  map 60% reduce 20%
13/05/31 14:59:51 INFO mapred.JobClient:  map 61% reduce 20%
13/05/31 15:00:15 INFO mapred.JobClient:  map 62% reduce 20%
13/05/31 15:00:44 INFO mapred.JobClient:  map 63% reduce 20%
13/05/31 15:00:52 INFO mapred.JobClient:  map 63% reduce 21%
13/05/31 15:01:12 INFO mapred.JobClient:  map 64% reduce 21%
13/05/31 15:01:40 INFO mapred.JobClient:  map 65% reduce 21%
13/05/31 15:02:08 INFO mapred.JobClient:  map 66% reduce 21%
13/05/31 15:02:16 INFO mapred.JobClient:  map 66% reduce 22%
13/05/31 15:02:25 INFO mapred.JobClient:  map 67% reduce 22%
13/05/31 15:02:56 INFO mapred.JobClient:  map 68% reduce 22%
13/05/31 15:03:26 INFO mapred.JobClient:  map 69% reduce 22%
13/05/31 15:03:34 INFO mapred.JobClient:  map 69% reduce 23%
13/05/31 15:03:54 INFO mapred.JobClient:  map 70% reduce 23%
13/05/31 15:04:24 INFO mapred.JobClient:  map 71% reduce 23%
13/05/31 15:04:52 INFO mapred.JobClient:  map 72% reduce 23%
13/05/31 15:04:59 INFO mapred.JobClient:  map 72% reduce 24%
13/05/31 15:05:11 INFO mapred.JobClient:  map 73% reduce 24%
13/05/31 15:05:39 INFO mapred.JobClient:  map 74% reduce 24%
13/05/31 15:06:05 INFO mapred.JobClient:  map 75% reduce 24%
13/05/31 15:06:15 INFO mapred.JobClient:  map 75% reduce 25%
13/05/31 15:06:33 INFO mapred.JobClient:  map 76% reduce 25%
13/05/31 15:07:02 INFO mapred.JobClient:  map 77% reduce 25%
13/05/31 15:07:30 INFO mapred.JobClient:  map 78% reduce 25%
13/05/31 15:07:40 INFO mapred.JobClient:  map 78% reduce 26%
13/05/31 15:07:59 INFO mapred.JobClient:  map 79% reduce 26%
13/05/31 15:08:29 INFO mapred.JobClient:  map 80% reduce 26%
13/05/31 15:08:55 INFO mapred.JobClient:  map 81% reduce 26%
13/05/31 15:09:02 INFO mapred.JobClient:  map 81% reduce 27%
13/05/31 15:09:20 INFO mapred.JobClient:  map 82% reduce 27%
13/05/31 15:09:45 INFO mapred.JobClient:  map 83% reduce 27%
13/05/31 15:10:08 INFO mapred.JobClient:  map 84% reduce 27%
13/05/31 15:10:18 INFO mapred.JobClient:  map 84% reduce 28%
13/05/31 15:10:36 INFO mapred.JobClient:  map 85% reduce 28%
13/05/31 15:11:03 INFO mapred.JobClient:  map 86% reduce 28%
13/05/31 15:11:29 INFO mapred.JobClient:  map 87% reduce 28%
13/05/31 15:11:38 INFO mapred.JobClient:  map 87% reduce 29%
13/05/31 15:11:58 INFO mapred.JobClient:  map 88% reduce 29%
13/05/31 15:12:17 INFO mapred.JobClient:  map 89% reduce 29%
13/05/31 15:12:46 INFO mapred.JobClient:  map 90% reduce 29%
13/05/31 15:12:56 INFO mapred.JobClient:  map 90% reduce 30%
13/05/31 15:13:15 INFO mapred.JobClient:  map 91% reduce 30%
13/05/31 15:13:39 INFO mapred.JobClient:  map 92% reduce 30%
13/05/31 15:14:08 INFO mapred.JobClient:  map 93% reduce 30%
13/05/31 15:14:17 INFO mapred.JobClient:  map 93% reduce 31%
13/05/31 15:14:36 INFO mapred.JobClient:  map 94% reduce 31%
13/05/31 15:14:59 INFO mapred.JobClient:  map 95% reduce 31%
13/05/31 15:15:27 INFO mapred.JobClient:  map 96% reduce 31%
13/05/31 15:15:35 INFO mapred.JobClient:  map 96% reduce 32%
13/05/31 15:15:54 INFO mapred.JobClient:  map 97% reduce 32%
13/05/31 15:16:22 INFO mapred.JobClient:  map 98% reduce 32%
13/05/31 15:16:50 INFO mapred.JobClient:  map 99% reduce 32%
13/05/31 15:16:58 INFO mapred.JobClient:  map 99% reduce 33%
13/05/31 15:17:17 INFO mapred.JobClient:  map 100% reduce 33%
13/05/31 15:18:42 INFO mapred.JobClient:  map 100% reduce 38%
13/05/31 15:18:47 INFO mapred.JobClient:  map 100% reduce 44%
13/05/31 15:18:52 INFO mapred.JobClient:  map 100% reduce 50%
13/05/31 15:18:56 INFO mapred.JobClient:  map 100% reduce 55%
13/05/31 15:18:57 INFO mapred.JobClient:  map 100% reduce 61%
13/05/31 15:19:06 INFO mapred.JobClient:  map 100% reduce 67%
13/05/31 15:19:17 INFO mapred.JobClient:  map 100% reduce 68%
13/05/31 15:20:01 INFO mapred.JobClient:  map 100% reduce 69%
13/05/31 15:20:37 INFO mapred.JobClient:  map 100% reduce 70%
13/05/31 15:21:17 INFO mapred.JobClient:  map 100% reduce 71%
13/05/31 15:21:59 INFO mapred.JobClient:  map 100% reduce 72%
13/05/31 15:22:45 INFO mapred.JobClient:  map 100% reduce 73%
13/05/31 15:23:28 INFO mapred.JobClient:  map 100% reduce 74%
13/05/31 15:24:17 INFO mapred.JobClient:  map 100% reduce 75%
13/05/31 15:25:11 INFO mapred.JobClient:  map 100% reduce 76%
13/05/31 15:26:05 INFO mapred.JobClient:  map 100% reduce 77%
13/05/31 15:27:00 INFO mapred.JobClient:  map 100% reduce 78%
13/05/31 15:27:59 INFO mapred.JobClient:  map 100% reduce 82%
13/05/31 15:28:01 INFO mapred.JobClient:  map 100% reduce 89%
13/05/31 15:28:21 INFO mapred.JobClient:  map 100% reduce 93%
13/05/31 15:28:23 INFO mapred.JobClient:  map 100% reduce 96%
13/05/31 15:28:27 INFO mapred.JobClient:  map 100% reduce 100%
13/05/31 15:28:29 INFO mapred.JobClient: Job complete: job_201305291147_0042
13/05/31 15:28:29 INFO mapred.JobClient: Counters: 35
13/05/31 15:28:29 INFO mapred.JobClient:   File System Counters
13/05/31 15:28:29 INFO mapred.JobClient:     FILE: Number of bytes read=39069433092
13/05/31 15:28:29 INFO mapred.JobClient:     FILE: Number of bytes written=57967904444
13/05/31 15:28:29 INFO mapred.JobClient:     FILE: Number of read operations=0
13/05/31 15:28:29 INFO mapred.JobClient:     FILE: Number of large read operations=0
13/05/31 15:28:29 INFO mapred.JobClient:     FILE: Number of write operations=0
13/05/31 15:28:29 INFO mapred.JobClient:     HDFS: Number of bytes read=51278279695
13/05/31 15:28:29 INFO mapred.JobClient:     HDFS: Number of bytes written=45088884387
13/05/31 15:28:29 INFO mapred.JobClient:     HDFS: Number of read operations=1529
13/05/31 15:28:29 INFO mapred.JobClient:     HDFS: Number of large read operations=0
13/05/31 15:28:29 INFO mapred.JobClient:     HDFS: Number of write operations=6
13/05/31 15:28:29 INFO mapred.JobClient:   Job Counters 
13/05/31 15:28:29 INFO mapred.JobClient:     Launched map tasks=765
13/05/31 15:28:29 INFO mapred.JobClient:     Launched reduce tasks=6
13/05/31 15:28:29 INFO mapred.JobClient:     Data-local map tasks=765
13/05/31 15:28:29 INFO mapred.JobClient:     Total time spent by all maps in occupied slots (ms)=11347546
13/05/31 15:28:29 INFO mapred.JobClient:     Total time spent by all reduces in occupied slots (ms)=19774870
13/05/31 15:28:29 INFO mapred.JobClient:     Total time spent by all maps waiting after reserving slots (ms)=0
13/05/31 15:28:29 INFO mapred.JobClient:     Total time spent by all reduces waiting after reserving slots (ms)=0
13/05/31 15:28:29 INFO mapred.JobClient:   Map-Reduce Framework
13/05/31 15:28:29 INFO mapred.JobClient:     Map input records=199999980
13/05/31 15:28:29 INFO mapred.JobClient:     Map output records=199999980
13/05/31 15:28:29 INFO mapred.JobClient:     Map output bytes=50177772774
13/05/31 15:28:29 INFO mapred.JobClient:     Input split bytes=93208
13/05/31 15:28:29 INFO mapred.JobClient:     Combine input records=0
13/05/31 15:28:29 INFO mapred.JobClient:     Combine output records=0
13/05/31 15:28:29 INFO mapred.JobClient:     Reduce input groups=99999990
13/05/31 15:28:29 INFO mapred.JobClient:     Reduce shuffle bytes=18777352645
13/05/31 15:28:29 INFO mapred.JobClient:     Reduce input records=199999980
13/05/31 15:28:29 INFO mapred.JobClient:     Reduce output records=99999990
13/05/31 15:28:29 INFO mapred.JobClient:     Spilled Records=615939088
13/05/31 15:28:29 INFO mapred.JobClient:     CPU time spent (ms)=38924130
13/05/31 15:28:29 INFO mapred.JobClient:     Physical memory (bytes) snapshot=204625874944
13/05/31 15:28:29 INFO mapred.JobClient:     Virtual memory (bytes) snapshot=849336336384
13/05/31 15:28:29 INFO mapred.JobClient:     Total committed heap usage (bytes)=151670882304
13/05/31 15:28:29 INFO mapred.JobClient:   it.crs4.seal.prq.PairReadsQSeqReducer$ReadCounters
13/05/31 15:28:29 INFO mapred.JobClient:     Dropped=0
13/05/31 15:28:29 INFO mapred.JobClient:     FailedFilter=0
13/05/31 15:28:29 INFO mapred.JobClient:     NotEnoughBases=0
