50.43user 18.96system 6:52:19elapsed 0%CPU (0avgtext+0avgdata 1194384maxresident)k
5592inputs+31264outputs (33major+151261minor)pagefaults 0swaps
53.63user 19.00system 6:53:36elapsed 0%CPU (0avgtext+0avgdata 1219472maxresident)k
736inputs+31312outputs (2major+152602minor)pagefaults 0swaps
56.79user 23.84system 6:56:16elapsed 0%CPU (0avgtext+0avgdata 1241280maxresident)k
4376inputs+31720outputs (6major+150992minor)pagefaults 0swaps
