Using hadoop executable /usr/bin/hadoop
INFO:seqal:Input: ecoli_10000000_prq; Output: ecoli_10000000_seqal_2; reference: references/ecoli/ecoli.tar
13/05/30 19:43:02 WARN util.NativeCodeLoader: Unable to load native-hadoop library for your platform... using builtin-java classes where applicable
INFO:seqal:Running in alignment-only mode (no rmdup).
DEPRECATED: Use of this script to execute mapred command is deprecated.
Instead use the mapred command for it.

13/05/30 19:43:04 WARN mapred.JobClient: Use GenericOptionsParser for parsing the arguments. Applications should implement Tool for the same.
13/05/30 19:43:04 WARN mapred.JobClient: No job jar file set.  User classes may not be found. See JobConf(Class) or JobConf#setJar(String).
13/05/30 19:43:04 INFO mapred.FileInputFormat: Total input paths to process : 6
13/05/30 19:43:05 INFO mapred.JobClient: Running job: job_201305291147_0032
13/05/30 19:43:06 INFO mapred.JobClient:  map 0% reduce 0%
13/05/30 19:43:23 INFO mapred.JobClient:  map 1% reduce 0%
13/05/30 19:43:35 INFO mapred.JobClient:  map 2% reduce 0%
13/05/30 19:43:50 INFO mapred.JobClient:  map 3% reduce 0%
13/05/30 19:44:05 INFO mapred.JobClient:  map 4% reduce 0%
13/05/30 19:44:14 INFO mapred.JobClient:  map 5% reduce 0%
13/05/30 19:44:41 INFO mapred.JobClient:  map 6% reduce 0%
13/05/30 19:44:52 INFO mapred.JobClient:  map 7% reduce 0%
13/05/30 19:45:08 INFO mapred.JobClient:  map 8% reduce 0%
13/05/30 19:45:20 INFO mapred.JobClient:  map 9% reduce 0%
13/05/30 19:45:35 INFO mapred.JobClient:  map 10% reduce 0%
13/05/30 19:45:47 INFO mapred.JobClient:  map 11% reduce 0%
13/05/30 19:46:07 INFO mapred.JobClient:  map 12% reduce 0%
13/05/30 19:46:22 INFO mapred.JobClient:  map 13% reduce 0%
13/05/30 19:46:33 INFO mapred.JobClient:  map 14% reduce 0%
13/05/30 19:46:47 INFO mapred.JobClient:  map 15% reduce 0%
13/05/30 19:47:02 INFO mapred.JobClient:  map 16% reduce 0%
13/05/30 19:47:28 INFO mapred.JobClient:  map 17% reduce 0%
13/05/30 19:47:34 INFO mapred.JobClient:  map 18% reduce 0%
13/05/30 19:47:50 INFO mapred.JobClient:  map 19% reduce 0%
13/05/30 19:48:02 INFO mapred.JobClient:  map 20% reduce 0%
13/05/30 19:48:17 INFO mapred.JobClient:  map 21% reduce 0%
13/05/30 19:48:32 INFO mapred.JobClient:  map 22% reduce 0%
13/05/30 19:48:53 INFO mapred.JobClient:  map 23% reduce 0%
13/05/30 19:49:05 INFO mapred.JobClient:  map 24% reduce 0%
13/05/30 19:49:15 INFO mapred.JobClient:  map 25% reduce 0%
13/05/30 19:49:29 INFO mapred.JobClient:  map 26% reduce 0%
13/05/30 19:49:44 INFO mapred.JobClient:  map 27% reduce 0%
13/05/30 19:50:04 INFO mapred.JobClient:  map 28% reduce 0%
13/05/30 19:50:17 INFO mapred.JobClient:  map 29% reduce 0%
13/05/30 19:50:32 INFO mapred.JobClient:  map 30% reduce 0%
13/05/30 19:50:44 INFO mapred.JobClient:  map 31% reduce 0%
13/05/30 19:50:59 INFO mapred.JobClient:  map 32% reduce 0%
13/05/30 19:51:15 INFO mapred.JobClient:  map 33% reduce 0%
13/05/30 19:51:35 INFO mapred.JobClient:  map 34% reduce 0%
13/05/30 19:51:47 INFO mapred.JobClient:  map 35% reduce 0%
13/05/30 19:51:56 INFO mapred.JobClient:  map 36% reduce 0%
13/05/30 19:52:14 INFO mapred.JobClient:  map 37% reduce 0%
13/05/30 19:52:26 INFO mapred.JobClient:  map 38% reduce 0%
13/05/30 19:52:44 INFO mapred.JobClient:  map 39% reduce 0%
13/05/30 19:53:02 INFO mapred.JobClient:  map 40% reduce 0%
13/05/30 19:53:15 INFO mapred.JobClient:  map 41% reduce 0%
13/05/30 19:53:27 INFO mapred.JobClient:  map 42% reduce 0%
13/05/30 19:53:41 INFO mapred.JobClient:  map 43% reduce 0%
13/05/30 19:53:56 INFO mapred.JobClient:  map 44% reduce 0%
13/05/30 19:54:19 INFO mapred.JobClient:  map 45% reduce 0%
13/05/30 19:54:30 INFO mapred.JobClient:  map 46% reduce 0%
13/05/30 19:54:45 INFO mapred.JobClient:  map 47% reduce 0%
13/05/30 19:54:59 INFO mapred.JobClient:  map 48% reduce 0%
13/05/30 19:55:12 INFO mapred.JobClient:  map 49% reduce 0%
13/05/30 19:55:32 INFO mapred.JobClient:  map 50% reduce 0%
13/05/30 19:55:50 INFO mapred.JobClient:  map 51% reduce 0%
13/05/30 19:56:00 INFO mapred.JobClient:  map 52% reduce 0%
13/05/30 19:56:14 INFO mapred.JobClient:  map 53% reduce 0%
13/05/30 19:56:29 INFO mapred.JobClient:  map 54% reduce 0%
13/05/30 19:56:44 INFO mapred.JobClient:  map 55% reduce 0%
13/05/30 19:57:00 INFO mapred.JobClient:  map 56% reduce 0%
13/05/30 19:57:14 INFO mapred.JobClient:  map 57% reduce 0%
13/05/30 19:57:29 INFO mapred.JobClient:  map 58% reduce 0%
13/05/30 19:57:42 INFO mapred.JobClient:  map 59% reduce 0%
13/05/30 19:57:54 INFO mapred.JobClient:  map 60% reduce 0%
13/05/30 19:58:14 INFO mapred.JobClient:  map 61% reduce 0%
13/05/30 19:58:35 INFO mapred.JobClient:  map 62% reduce 0%
13/05/30 19:58:45 INFO mapred.JobClient:  map 63% reduce 0%
13/05/30 19:58:56 INFO mapred.JobClient:  map 64% reduce 0%
13/05/30 19:59:12 INFO mapred.JobClient:  map 65% reduce 0%
13/05/30 19:59:27 INFO mapred.JobClient:  map 66% reduce 0%
13/05/30 19:59:48 INFO mapred.JobClient:  map 67% reduce 0%
13/05/30 20:00:01 INFO mapred.JobClient:  map 68% reduce 0%
13/05/30 20:00:15 INFO mapred.JobClient:  map 69% reduce 0%
13/05/30 20:00:26 INFO mapred.JobClient:  map 70% reduce 0%
13/05/30 20:00:40 INFO mapred.JobClient:  map 71% reduce 0%
13/05/30 20:01:01 INFO mapred.JobClient:  map 72% reduce 0%
13/05/30 20:01:19 INFO mapred.JobClient:  map 73% reduce 0%
13/05/30 20:01:29 INFO mapred.JobClient:  map 74% reduce 0%
13/05/30 20:01:44 INFO mapred.JobClient:  map 75% reduce 0%
13/05/30 20:01:56 INFO mapred.JobClient:  map 76% reduce 0%
13/05/30 20:02:11 INFO mapred.JobClient:  map 77% reduce 0%
13/05/30 20:02:27 INFO mapred.JobClient:  map 78% reduce 0%
13/05/30 20:02:47 INFO mapred.JobClient:  map 79% reduce 0%
13/05/30 20:02:59 INFO mapred.JobClient:  map 80% reduce 0%
13/05/30 20:03:13 INFO mapred.JobClient:  map 81% reduce 0%
13/05/30 20:03:24 INFO mapred.JobClient:  map 82% reduce 0%
13/05/30 20:03:44 INFO mapred.JobClient:  map 83% reduce 0%
13/05/30 20:03:59 INFO mapred.JobClient:  map 84% reduce 0%
13/05/30 20:04:15 INFO mapred.JobClient:  map 85% reduce 0%
13/05/30 20:04:29 INFO mapred.JobClient:  map 86% reduce 0%
13/05/30 20:04:43 INFO mapred.JobClient:  map 87% reduce 0%
13/05/30 20:04:58 INFO mapred.JobClient:  map 88% reduce 0%
13/05/30 20:05:14 INFO mapred.JobClient:  map 89% reduce 0%
13/05/30 20:05:30 INFO mapred.JobClient:  map 90% reduce 0%
13/05/30 20:05:37 INFO mapred.JobClient:  map 91% reduce 0%
13/05/30 20:05:40 INFO mapred.JobClient:  map 92% reduce 0%
13/05/30 20:05:46 INFO mapred.JobClient:  map 93% reduce 0%
13/05/30 20:06:03 INFO mapred.JobClient:  map 94% reduce 0%
13/05/30 20:06:06 INFO mapred.JobClient:  map 95% reduce 0%
13/05/30 20:06:09 INFO mapred.JobClient:  map 96% reduce 0%
13/05/30 20:06:21 INFO mapred.JobClient:  map 97% reduce 0%
13/05/30 20:06:32 INFO mapred.JobClient:  map 98% reduce 0%
13/05/30 20:06:38 INFO mapred.JobClient:  map 99% reduce 0%
13/05/30 20:06:53 INFO mapred.JobClient:  map 100% reduce 0%
13/05/30 20:06:54 INFO mapred.JobClient: Job complete: job_201305291147_0032
13/05/30 20:06:54 INFO mapred.JobClient: Counters: 39
13/05/30 20:06:54 INFO mapred.JobClient:   File System Counters
13/05/30 20:06:54 INFO mapred.JobClient:     FILE: Number of bytes read=0
13/05/30 20:06:54 INFO mapred.JobClient:     FILE: Number of bytes written=11700671
13/05/30 20:06:54 INFO mapred.JobClient:     FILE: Number of read operations=0
13/05/30 20:06:54 INFO mapred.JobClient:     FILE: Number of large read operations=0
13/05/30 20:06:54 INFO mapred.JobClient:     FILE: Number of write operations=0
13/05/30 20:06:54 INFO mapred.JobClient:     HDFS: Number of bytes read=4559167147
13/05/30 20:06:54 INFO mapred.JobClient:     HDFS: Number of bytes written=7708500031
13/05/30 20:06:54 INFO mapred.JobClient:     HDFS: Number of read operations=268
13/05/30 20:06:54 INFO mapred.JobClient:     HDFS: Number of large read operations=0
13/05/30 20:06:54 INFO mapred.JobClient:     HDFS: Number of write operations=144
13/05/30 20:06:54 INFO mapred.JobClient:   Job Counters 
13/05/30 20:06:54 INFO mapred.JobClient:     Launched map tasks=74
13/05/30 20:06:54 INFO mapred.JobClient:     Data-local map tasks=74
13/05/30 20:06:54 INFO mapred.JobClient:     Total time spent by all maps in occupied slots (ms)=5650894
13/05/30 20:06:54 INFO mapred.JobClient:     Total time spent by all reduces in occupied slots (ms)=0
13/05/30 20:06:54 INFO mapred.JobClient:     Total time spent by all maps waiting after reserving slots (ms)=0
13/05/30 20:06:54 INFO mapred.JobClient:     Total time spent by all reduces waiting after reserving slots (ms)=0
13/05/30 20:06:54 INFO mapred.JobClient:   Map-Reduce Framework
13/05/30 20:06:54 INFO mapred.JobClient:     Map input records=10000000
13/05/30 20:06:54 INFO mapred.JobClient:     Map output records=20000000
13/05/30 20:06:54 INFO mapred.JobClient:     Input split bytes=7848
13/05/30 20:06:54 INFO mapred.JobClient:     Spilled Records=0
13/05/30 20:06:54 INFO mapred.JobClient:     CPU time spent (ms)=5469550
13/05/30 20:06:54 INFO mapred.JobClient:     Physical memory (bytes) snapshot=9833709568
13/05/30 20:06:54 INFO mapred.JobClient:     Virtual memory (bytes) snapshot=79641145344
13/05/30 20:06:54 INFO mapred.JobClient:     Total committed heap usage (bytes)=13375897600
13/05/30 20:06:54 INFO mapred.JobClient:   SEQAL
13/05/30 20:06:54 INFO mapred.JobClient:     EMITTED SAM RECORDS=20000000
13/05/30 20:06:54 INFO mapred.JobClient:     READS PROCESSED=20000000
13/05/30 20:06:54 INFO mapred.JobClient:     TIME_ANALYZE_PAIRS (CAL_+SW+REFGAP+PROCESS)=4826309
13/05/30 20:06:54 INFO mapred.JobClient:     TIME_BUILD_BWSA=82297
13/05/30 20:06:54 INFO mapred.JobClient:     TIME_CAL_PAC_POS_PE=85274
13/05/30 20:06:54 INFO mapred.JobClient:     TIME_CAL_SA_REG_GAP=1046949
13/05/30 20:06:54 INFO mapred.JobClient:     TIME_COUNT_BASES=88423
13/05/30 20:06:54 INFO mapred.JobClient:     TIME_DESTROY_SEQUENCES=5015
13/05/30 20:06:54 INFO mapred.JobClient:     TIME_PAIRED_SW=96010
13/05/30 20:06:54 INFO mapred.JobClient:     TIME_REFINE_GAPPED=15698
13/05/30 20:06:54 INFO mapred.JobClient:     TIME_RESTORE_INDEX=0
13/05/30 20:06:54 INFO mapred.JobClient:     TIME_RESTORE_REFERENCE=0
13/05/30 20:06:54 INFO mapred.JobClient:     TOTAL BASES=2020000000
13/05/30 20:06:54 INFO mapred.JobClient:     TRIMMED BASES=0
13/05/30 20:06:54 INFO mapred.JobClient:   org.apache.hadoop.mapreduce.lib.input.FileInputFormatCounter
13/05/30 20:06:54 INFO mapred.JobClient:     BYTES_READ=4558888897
