8.32user 1.22system 23:57.53elapsed 0%CPU (0avgtext+0avgdata 845792maxresident)k
6208inputs+2672outputs (13major+129617minor)pagefaults 0swaps
8.30user 1.28system 23:52.75elapsed 0%CPU (0avgtext+0avgdata 848736maxresident)k
0inputs+2672outputs (0major+130555minor)pagefaults 0swaps
8.17user 1.24system 23:51.85elapsed 0%CPU (0avgtext+0avgdata 819280maxresident)k
0inputs+2648outputs (0major+122123minor)pagefaults 0swaps
