Using hadoop executable /usr/bin/hadoop
INFO:seqal:Input: dm3_66666666_prq; Output: dm3_66666666_seqal_2; reference: references/dm3/dm3.tar
13/05/28 17:22:21 WARN util.NativeCodeLoader: Unable to load native-hadoop library for your platform... using builtin-java classes where applicable
INFO:seqal:Running in alignment-only mode (no rmdup).
DEPRECATED: Use of this script to execute mapred command is deprecated.
Instead use the mapred command for it.

13/05/28 17:22:24 WARN mapred.JobClient: Use GenericOptionsParser for parsing the arguments. Applications should implement Tool for the same.
13/05/28 17:22:24 WARN mapred.JobClient: No job jar file set.  User classes may not be found. See JobConf(Class) or JobConf#setJar(String).
13/05/28 17:22:24 INFO mapred.FileInputFormat: Total input paths to process : 33
13/05/28 17:22:25 INFO mapred.JobClient: Running job: job_201305071141_0109
13/05/28 17:22:26 INFO mapred.JobClient:  map 0% reduce 0%
13/05/28 17:23:09 INFO mapred.JobClient:  map 1% reduce 0%
13/05/28 17:23:48 INFO mapred.JobClient:  map 2% reduce 0%
13/05/28 17:24:36 INFO mapred.JobClient:  map 3% reduce 0%
13/05/28 17:25:18 INFO mapred.JobClient:  map 4% reduce 0%
13/05/28 17:26:01 INFO mapred.JobClient:  map 5% reduce 0%
13/05/28 17:26:51 INFO mapred.JobClient:  map 6% reduce 0%
13/05/28 17:27:35 INFO mapred.JobClient:  map 7% reduce 0%
13/05/28 17:28:18 INFO mapred.JobClient:  map 8% reduce 0%
13/05/28 17:29:05 INFO mapred.JobClient:  map 9% reduce 0%
13/05/28 17:29:51 INFO mapred.JobClient:  map 10% reduce 0%
13/05/28 17:30:36 INFO mapred.JobClient:  map 11% reduce 0%
13/05/28 17:31:22 INFO mapred.JobClient:  map 12% reduce 0%
13/05/28 17:32:07 INFO mapred.JobClient:  map 13% reduce 0%
13/05/28 17:32:52 INFO mapred.JobClient:  map 14% reduce 0%
13/05/28 17:33:34 INFO mapred.JobClient:  map 15% reduce 0%
13/05/28 17:34:21 INFO mapred.JobClient:  map 16% reduce 0%
13/05/28 17:35:04 INFO mapred.JobClient:  map 17% reduce 0%
13/05/28 17:35:48 INFO mapred.JobClient:  map 18% reduce 0%
13/05/28 17:36:36 INFO mapred.JobClient:  map 19% reduce 0%
13/05/28 17:37:22 INFO mapred.JobClient:  map 20% reduce 0%
13/05/28 17:38:06 INFO mapred.JobClient:  map 21% reduce 0%
13/05/28 17:38:52 INFO mapred.JobClient:  map 22% reduce 0%
13/05/28 17:39:37 INFO mapred.JobClient:  map 23% reduce 0%
13/05/28 17:40:21 INFO mapred.JobClient:  map 24% reduce 0%
13/05/28 17:41:07 INFO mapred.JobClient:  map 25% reduce 0%
13/05/28 17:41:53 INFO mapred.JobClient:  map 26% reduce 0%
13/05/28 17:42:38 INFO mapred.JobClient:  map 27% reduce 0%
13/05/28 17:43:23 INFO mapred.JobClient:  map 28% reduce 0%
13/05/28 17:44:07 INFO mapred.JobClient:  map 29% reduce 0%
13/05/28 17:44:51 INFO mapred.JobClient:  map 30% reduce 0%
13/05/28 17:45:37 INFO mapred.JobClient:  map 31% reduce 0%
13/05/28 17:46:23 INFO mapred.JobClient:  map 32% reduce 0%
13/05/28 17:47:09 INFO mapred.JobClient:  map 33% reduce 0%
13/05/28 17:47:58 INFO mapred.JobClient:  map 34% reduce 0%
13/05/28 17:48:45 INFO mapred.JobClient:  map 35% reduce 0%
13/05/28 17:49:31 INFO mapred.JobClient:  map 36% reduce 0%
13/05/28 17:50:15 INFO mapred.JobClient:  map 37% reduce 0%
13/05/28 17:51:01 INFO mapred.JobClient:  map 38% reduce 0%
13/05/28 17:51:46 INFO mapred.JobClient:  map 39% reduce 0%
13/05/28 17:52:30 INFO mapred.JobClient:  map 40% reduce 0%
13/05/28 17:53:16 INFO mapred.JobClient:  map 41% reduce 0%
13/05/28 17:54:01 INFO mapred.JobClient:  map 42% reduce 0%
13/05/28 17:54:45 INFO mapred.JobClient:  map 43% reduce 0%
13/05/28 17:55:31 INFO mapred.JobClient:  map 44% reduce 0%
13/05/28 17:56:16 INFO mapred.JobClient:  map 45% reduce 0%
13/05/28 17:56:58 INFO mapred.JobClient:  map 46% reduce 0%
13/05/28 17:57:44 INFO mapred.JobClient:  map 47% reduce 0%
13/05/28 17:58:31 INFO mapred.JobClient:  map 48% reduce 0%
13/05/28 17:59:17 INFO mapred.JobClient:  map 49% reduce 0%
13/05/28 18:00:02 INFO mapred.JobClient:  map 50% reduce 0%
13/05/28 18:00:48 INFO mapred.JobClient:  map 51% reduce 0%
13/05/28 18:01:30 INFO mapred.JobClient:  map 52% reduce 0%
13/05/28 18:02:16 INFO mapred.JobClient:  map 53% reduce 0%
13/05/28 18:03:02 INFO mapred.JobClient:  map 54% reduce 0%
13/05/28 18:03:47 INFO mapred.JobClient:  map 55% reduce 0%
13/05/28 18:04:34 INFO mapred.JobClient:  map 56% reduce 0%
13/05/28 18:05:19 INFO mapred.JobClient:  map 57% reduce 0%
13/05/28 18:06:05 INFO mapred.JobClient:  map 58% reduce 0%
13/05/28 18:06:49 INFO mapred.JobClient:  map 59% reduce 0%
13/05/28 18:07:34 INFO mapred.JobClient:  map 60% reduce 0%
13/05/28 18:08:21 INFO mapred.JobClient:  map 61% reduce 0%
13/05/28 18:09:03 INFO mapred.JobClient:  map 62% reduce 0%
13/05/28 18:09:51 INFO mapred.JobClient:  map 63% reduce 0%
13/05/28 18:10:37 INFO mapred.JobClient:  map 64% reduce 0%
13/05/28 18:11:21 INFO mapred.JobClient:  map 65% reduce 0%
13/05/28 18:12:10 INFO mapred.JobClient:  map 66% reduce 0%
13/05/28 18:12:54 INFO mapred.JobClient:  map 67% reduce 0%
13/05/28 18:13:35 INFO mapred.JobClient:  map 68% reduce 0%
13/05/28 18:14:24 INFO mapred.JobClient:  map 69% reduce 0%
13/05/28 18:15:06 INFO mapred.JobClient:  map 70% reduce 0%
13/05/28 18:15:52 INFO mapred.JobClient:  map 71% reduce 0%
13/05/28 18:16:38 INFO mapred.JobClient:  map 72% reduce 0%
13/05/28 18:17:22 INFO mapred.JobClient:  map 73% reduce 0%
13/05/28 18:18:09 INFO mapred.JobClient:  map 74% reduce 0%
13/05/28 18:18:55 INFO mapred.JobClient:  map 75% reduce 0%
13/05/28 18:19:41 INFO mapred.JobClient:  map 76% reduce 0%
13/05/28 18:20:28 INFO mapred.JobClient:  map 77% reduce 0%
13/05/28 18:21:14 INFO mapred.JobClient:  map 78% reduce 0%
13/05/28 18:22:00 INFO mapred.JobClient:  map 79% reduce 0%
13/05/28 18:22:46 INFO mapred.JobClient:  map 80% reduce 0%
13/05/28 18:23:30 INFO mapred.JobClient:  map 81% reduce 0%
13/05/28 18:24:13 INFO mapred.JobClient:  map 82% reduce 0%
13/05/28 18:24:59 INFO mapred.JobClient:  map 83% reduce 0%
13/05/28 18:25:44 INFO mapred.JobClient:  map 84% reduce 0%
13/05/28 18:26:28 INFO mapred.JobClient:  map 85% reduce 0%
13/05/28 18:27:16 INFO mapred.JobClient:  map 86% reduce 0%
13/05/28 18:28:00 INFO mapred.JobClient:  map 87% reduce 0%
13/05/28 18:28:42 INFO mapred.JobClient:  map 88% reduce 0%
13/05/28 18:29:30 INFO mapred.JobClient:  map 89% reduce 0%
13/05/28 18:30:12 INFO mapred.JobClient:  map 90% reduce 0%
13/05/28 18:30:56 INFO mapred.JobClient:  map 91% reduce 0%
13/05/28 18:31:42 INFO mapred.JobClient:  map 92% reduce 0%
13/05/28 18:32:25 INFO mapred.JobClient:  map 93% reduce 0%
13/05/28 18:33:02 INFO mapred.JobClient:  map 94% reduce 0%
13/05/28 18:33:32 INFO mapred.JobClient:  map 95% reduce 0%
13/05/28 18:33:57 INFO mapred.JobClient:  map 96% reduce 0%
13/05/28 18:34:20 INFO mapred.JobClient:  map 97% reduce 0%
13/05/28 18:34:43 INFO mapred.JobClient:  map 98% reduce 0%
13/05/28 18:35:08 INFO mapred.JobClient:  map 99% reduce 0%
13/05/28 18:37:44 INFO mapred.JobClient:  map 100% reduce 0%
13/05/28 18:37:45 INFO mapred.JobClient: Job complete: job_201305071141_0109
13/05/28 18:37:45 INFO mapred.JobClient: Counters: 40
13/05/28 18:37:45 INFO mapred.JobClient:   File System Counters
13/05/28 18:37:45 INFO mapred.JobClient:     FILE: Number of bytes read=0
13/05/28 18:37:45 INFO mapred.JobClient:     FILE: Number of bytes written=112617676
13/05/28 18:37:45 INFO mapred.JobClient:     FILE: Number of read operations=0
13/05/28 18:37:45 INFO mapred.JobClient:     FILE: Number of large read operations=0
13/05/28 18:37:45 INFO mapred.JobClient:     FILE: Number of write operations=0
13/05/28 18:37:45 INFO mapred.JobClient:     HDFS: Number of bytes read=45091658462
13/05/28 18:37:45 INFO mapred.JobClient:     HDFS: Number of bytes written=71747980845
13/05/28 18:37:45 INFO mapred.JobClient:     HDFS: Number of read operations=2357
13/05/28 18:37:45 INFO mapred.JobClient:     HDFS: Number of large read operations=0
13/05/28 18:37:45 INFO mapred.JobClient:     HDFS: Number of write operations=1401
13/05/28 18:37:45 INFO mapred.JobClient:   Job Counters 
13/05/28 18:37:45 INFO mapred.JobClient:     Launched map tasks=703
13/05/28 18:37:45 INFO mapred.JobClient:     Data-local map tasks=694
13/05/28 18:37:45 INFO mapred.JobClient:     Rack-local map tasks=9
13/05/28 18:37:45 INFO mapred.JobClient:     Total time spent by all maps in occupied slots (ms)=96687510
13/05/28 18:37:45 INFO mapred.JobClient:     Total time spent by all reduces in occupied slots (ms)=0
13/05/28 18:37:45 INFO mapred.JobClient:     Total time spent by all maps waiting after reserving slots (ms)=0
13/05/28 18:37:45 INFO mapred.JobClient:     Total time spent by all reduces waiting after reserving slots (ms)=0
13/05/28 18:37:45 INFO mapred.JobClient:   Map-Reduce Framework
13/05/28 18:37:45 INFO mapred.JobClient:     Map input records=99999990
13/05/28 18:37:45 INFO mapred.JobClient:     Map output records=199999980
13/05/28 18:37:45 INFO mapred.JobClient:     Input split bytes=74151
13/05/28 18:37:45 INFO mapred.JobClient:     Spilled Records=0
13/05/28 18:37:45 INFO mapred.JobClient:     CPU time spent (ms)=93378960
13/05/28 18:37:45 INFO mapred.JobClient:     Physical memory (bytes) snapshot=87037030400
13/05/28 18:37:45 INFO mapred.JobClient:     Virtual memory (bytes) snapshot=746697748480
13/05/28 18:37:45 INFO mapred.JobClient:     Total committed heap usage (bytes)=82819284992
13/05/28 18:37:45 INFO mapred.JobClient:   SEQAL
13/05/28 18:37:45 INFO mapred.JobClient:     EMITTED SAM RECORDS=199999980
13/05/28 18:37:45 INFO mapred.JobClient:     READS PROCESSED=199999980
13/05/28 18:37:45 INFO mapred.JobClient:     TIME_ANALYZE_PAIRS (CAL_+SW+REFGAP+PROCESS)=88476521
13/05/28 18:37:45 INFO mapred.JobClient:     TIME_BUILD_BWSA=919117
13/05/28 18:37:45 INFO mapred.JobClient:     TIME_CAL_PAC_POS_PE=5868983
13/05/28 18:37:45 INFO mapred.JobClient:     TIME_CAL_SA_REG_GAP=43047080
13/05/28 18:37:45 INFO mapred.JobClient:     TIME_COUNT_BASES=940080
13/05/28 18:37:45 INFO mapred.JobClient:     TIME_DESTROY_SEQUENCES=64173
13/05/28 18:37:45 INFO mapred.JobClient:     TIME_PAIRED_SW=1200694
13/05/28 18:37:45 INFO mapred.JobClient:     TIME_REFINE_GAPPED=175369
13/05/28 18:37:45 INFO mapred.JobClient:     TIME_RESTORE_INDEX=8099
13/05/28 18:37:45 INFO mapred.JobClient:     TIME_RESTORE_REFERENCE=12007
13/05/28 18:37:45 INFO mapred.JobClient:     TOTAL BASES=20199997980
13/05/28 18:37:45 INFO mapred.JobClient:     TRIMMED BASES=0
13/05/28 18:37:45 INFO mapred.JobClient:   org.apache.hadoop.mapreduce.lib.input.FileInputFormatCounter
13/05/28 18:37:45 INFO mapred.JobClient:     BYTES_READ=45088884387
