Using hadoop executable /usr/bin/hadoop
INFO:seqal:Input: dm3_66666666_prq; Output: dm3_66666666_seqal_1; reference: references/dm3/dm3.tar
13/05/28 16:06:19 WARN util.NativeCodeLoader: Unable to load native-hadoop library for your platform... using builtin-java classes where applicable
INFO:seqal:Running in alignment-only mode (no rmdup).
DEPRECATED: Use of this script to execute mapred command is deprecated.
Instead use the mapred command for it.

13/05/28 16:06:21 WARN mapred.JobClient: Use GenericOptionsParser for parsing the arguments. Applications should implement Tool for the same.
13/05/28 16:06:21 WARN mapred.JobClient: No job jar file set.  User classes may not be found. See JobConf(Class) or JobConf#setJar(String).
13/05/28 16:06:21 INFO mapred.FileInputFormat: Total input paths to process : 33
13/05/28 16:06:22 INFO mapred.JobClient: Running job: job_201305071141_0108
13/05/28 16:06:23 INFO mapred.JobClient:  map 0% reduce 0%
13/05/28 16:07:12 INFO mapred.JobClient:  map 1% reduce 0%
13/05/28 16:07:51 INFO mapred.JobClient:  map 2% reduce 0%
13/05/28 16:08:37 INFO mapred.JobClient:  map 3% reduce 0%
13/05/28 16:09:24 INFO mapred.JobClient:  map 4% reduce 0%
13/05/28 16:10:07 INFO mapred.JobClient:  map 5% reduce 0%
13/05/28 16:10:55 INFO mapred.JobClient:  map 6% reduce 0%
13/05/28 16:11:38 INFO mapred.JobClient:  map 7% reduce 0%
13/05/28 16:12:22 INFO mapred.JobClient:  map 8% reduce 0%
13/05/28 16:13:10 INFO mapred.JobClient:  map 9% reduce 0%
13/05/28 16:13:53 INFO mapred.JobClient:  map 10% reduce 0%
13/05/28 16:14:40 INFO mapred.JobClient:  map 11% reduce 0%
13/05/28 16:15:27 INFO mapred.JobClient:  map 12% reduce 0%
13/05/28 16:16:12 INFO mapred.JobClient:  map 13% reduce 0%
13/05/28 16:16:57 INFO mapred.JobClient:  map 14% reduce 0%
13/05/28 16:17:39 INFO mapred.JobClient:  map 15% reduce 0%
13/05/28 16:18:23 INFO mapred.JobClient:  map 16% reduce 0%
13/05/28 16:19:12 INFO mapred.JobClient:  map 17% reduce 0%
13/05/28 16:19:53 INFO mapred.JobClient:  map 18% reduce 0%
13/05/28 16:20:40 INFO mapred.JobClient:  map 19% reduce 0%
13/05/28 16:21:28 INFO mapred.JobClient:  map 20% reduce 0%
13/05/28 16:22:12 INFO mapred.JobClient:  map 21% reduce 0%
13/05/28 16:22:56 INFO mapred.JobClient:  map 22% reduce 0%
13/05/28 16:23:39 INFO mapred.JobClient:  map 23% reduce 0%
13/05/28 16:24:24 INFO mapred.JobClient:  map 24% reduce 0%
13/05/28 16:25:10 INFO mapred.JobClient:  map 25% reduce 0%
13/05/28 16:25:57 INFO mapred.JobClient:  map 26% reduce 0%
13/05/28 16:26:41 INFO mapred.JobClient:  map 27% reduce 0%
13/05/28 16:27:25 INFO mapred.JobClient:  map 28% reduce 0%
13/05/28 16:28:09 INFO mapred.JobClient:  map 29% reduce 0%
13/05/28 16:28:54 INFO mapred.JobClient:  map 30% reduce 0%
13/05/28 16:29:40 INFO mapred.JobClient:  map 31% reduce 0%
13/05/28 16:30:25 INFO mapred.JobClient:  map 32% reduce 0%
13/05/28 16:31:13 INFO mapred.JobClient:  map 33% reduce 0%
13/05/28 16:31:58 INFO mapred.JobClient:  map 34% reduce 0%
13/05/28 16:32:44 INFO mapred.JobClient:  map 35% reduce 0%
13/05/28 16:33:32 INFO mapred.JobClient:  map 36% reduce 0%
13/05/28 16:34:17 INFO mapred.JobClient:  map 37% reduce 0%
13/05/28 16:35:00 INFO mapred.JobClient:  map 38% reduce 0%
13/05/28 16:35:46 INFO mapred.JobClient:  map 39% reduce 0%
13/05/28 16:36:31 INFO mapred.JobClient:  map 40% reduce 0%
13/05/28 16:37:15 INFO mapred.JobClient:  map 41% reduce 0%
13/05/28 16:38:00 INFO mapred.JobClient:  map 42% reduce 0%
13/05/28 16:38:46 INFO mapred.JobClient:  map 43% reduce 0%
13/05/28 16:39:29 INFO mapred.JobClient:  map 44% reduce 0%
13/05/28 16:40:15 INFO mapred.JobClient:  map 45% reduce 0%
13/05/28 16:40:59 INFO mapred.JobClient:  map 46% reduce 0%
13/05/28 16:41:43 INFO mapred.JobClient:  map 47% reduce 0%
13/05/28 16:42:29 INFO mapred.JobClient:  map 48% reduce 0%
13/05/28 16:43:14 INFO mapred.JobClient:  map 49% reduce 0%
13/05/28 16:44:00 INFO mapred.JobClient:  map 50% reduce 0%
13/05/28 16:44:46 INFO mapred.JobClient:  map 51% reduce 0%
13/05/28 16:45:31 INFO mapred.JobClient:  map 52% reduce 0%
13/05/28 16:46:16 INFO mapred.JobClient:  map 53% reduce 0%
13/05/28 16:47:03 INFO mapred.JobClient:  map 54% reduce 0%
13/05/28 16:47:49 INFO mapred.JobClient:  map 55% reduce 0%
13/05/28 16:48:35 INFO mapred.JobClient:  map 56% reduce 0%
13/05/28 16:49:21 INFO mapred.JobClient:  map 57% reduce 0%
13/05/28 16:50:07 INFO mapred.JobClient:  map 58% reduce 0%
13/05/28 16:50:51 INFO mapred.JobClient:  map 59% reduce 0%
13/05/28 16:51:36 INFO mapred.JobClient:  map 60% reduce 0%
13/05/28 16:52:20 INFO mapred.JobClient:  map 61% reduce 0%
13/05/28 16:53:03 INFO mapred.JobClient:  map 62% reduce 0%
13/05/28 16:53:50 INFO mapred.JobClient:  map 63% reduce 0%
13/05/28 16:54:34 INFO mapred.JobClient:  map 64% reduce 0%
13/05/28 16:55:21 INFO mapred.JobClient:  map 65% reduce 0%
13/05/28 16:56:06 INFO mapred.JobClient:  map 66% reduce 0%
13/05/28 16:56:53 INFO mapred.JobClient:  map 67% reduce 0%
13/05/28 16:57:35 INFO mapred.JobClient:  map 68% reduce 0%
13/05/28 16:58:21 INFO mapred.JobClient:  map 69% reduce 0%
13/05/28 16:59:08 INFO mapred.JobClient:  map 70% reduce 0%
13/05/28 16:59:56 INFO mapred.JobClient:  map 71% reduce 0%
13/05/28 17:00:42 INFO mapred.JobClient:  map 72% reduce 0%
13/05/28 17:01:28 INFO mapred.JobClient:  map 73% reduce 0%
13/05/28 17:02:13 INFO mapred.JobClient:  map 74% reduce 0%
13/05/28 17:02:55 INFO mapred.JobClient:  map 75% reduce 0%
13/05/28 17:03:40 INFO mapred.JobClient:  map 76% reduce 0%
13/05/28 17:04:26 INFO mapred.JobClient:  map 77% reduce 0%
13/05/28 17:05:12 INFO mapred.JobClient:  map 78% reduce 0%
13/05/28 17:05:58 INFO mapred.JobClient:  map 79% reduce 0%
13/05/28 17:06:44 INFO mapred.JobClient:  map 80% reduce 0%
13/05/28 17:07:29 INFO mapred.JobClient:  map 81% reduce 0%
13/05/28 17:08:12 INFO mapred.JobClient:  map 82% reduce 0%
13/05/28 17:08:59 INFO mapred.JobClient:  map 83% reduce 0%
13/05/28 17:09:44 INFO mapred.JobClient:  map 84% reduce 0%
13/05/28 17:10:28 INFO mapred.JobClient:  map 85% reduce 0%
13/05/28 17:11:16 INFO mapred.JobClient:  map 86% reduce 0%
13/05/28 17:12:02 INFO mapred.JobClient:  map 87% reduce 0%
13/05/28 17:12:45 INFO mapred.JobClient:  map 88% reduce 0%
13/05/28 17:13:28 INFO mapred.JobClient:  map 89% reduce 0%
13/05/28 17:14:11 INFO mapred.JobClient:  map 90% reduce 0%
13/05/28 17:14:57 INFO mapred.JobClient:  map 91% reduce 0%
13/05/28 17:15:41 INFO mapred.JobClient:  map 92% reduce 0%
13/05/28 17:16:22 INFO mapred.JobClient:  map 93% reduce 0%
13/05/28 17:16:59 INFO mapred.JobClient:  map 94% reduce 0%
13/05/28 17:17:31 INFO mapred.JobClient:  map 95% reduce 0%
13/05/28 17:18:02 INFO mapred.JobClient:  map 96% reduce 0%
13/05/28 17:18:22 INFO mapred.JobClient:  map 97% reduce 0%
13/05/28 17:18:45 INFO mapred.JobClient:  map 98% reduce 0%
13/05/28 17:19:10 INFO mapred.JobClient:  map 99% reduce 0%
13/05/28 17:22:19 INFO mapred.JobClient:  map 100% reduce 0%
13/05/28 17:22:20 INFO mapred.JobClient: Job complete: job_201305071141_0108
13/05/28 17:22:20 INFO mapred.JobClient: Counters: 40
13/05/28 17:22:20 INFO mapred.JobClient:   File System Counters
13/05/28 17:22:20 INFO mapred.JobClient:     FILE: Number of bytes read=0
13/05/28 17:22:20 INFO mapred.JobClient:     FILE: Number of bytes written=112614959
13/05/28 17:22:20 INFO mapred.JobClient:     FILE: Number of read operations=0
13/05/28 17:22:20 INFO mapred.JobClient:     FILE: Number of large read operations=0
13/05/28 17:22:20 INFO mapred.JobClient:     FILE: Number of write operations=0
13/05/28 17:22:20 INFO mapred.JobClient:     HDFS: Number of bytes read=45091658462
13/05/28 17:22:20 INFO mapred.JobClient:     HDFS: Number of bytes written=71747980845
13/05/28 17:22:20 INFO mapred.JobClient:     HDFS: Number of read operations=2327
13/05/28 17:22:20 INFO mapred.JobClient:     HDFS: Number of large read operations=0
13/05/28 17:22:20 INFO mapred.JobClient:     HDFS: Number of write operations=1393
13/05/28 17:22:20 INFO mapred.JobClient:   Job Counters 
13/05/28 17:22:20 INFO mapred.JobClient:     Launched map tasks=700
13/05/28 17:22:20 INFO mapred.JobClient:     Data-local map tasks=694
13/05/28 17:22:20 INFO mapred.JobClient:     Rack-local map tasks=6
13/05/28 17:22:20 INFO mapred.JobClient:     Total time spent by all maps in occupied slots (ms)=96752354
13/05/28 17:22:20 INFO mapred.JobClient:     Total time spent by all reduces in occupied slots (ms)=0
13/05/28 17:22:20 INFO mapred.JobClient:     Total time spent by all maps waiting after reserving slots (ms)=0
13/05/28 17:22:20 INFO mapred.JobClient:     Total time spent by all reduces waiting after reserving slots (ms)=0
13/05/28 17:22:20 INFO mapred.JobClient:   Map-Reduce Framework
13/05/28 17:22:20 INFO mapred.JobClient:     Map input records=99999990
13/05/28 17:22:20 INFO mapred.JobClient:     Map output records=199999980
13/05/28 17:22:20 INFO mapred.JobClient:     Input split bytes=74151
13/05/28 17:22:20 INFO mapred.JobClient:     Spilled Records=0
13/05/28 17:22:20 INFO mapred.JobClient:     CPU time spent (ms)=93338520
13/05/28 17:22:20 INFO mapred.JobClient:     Physical memory (bytes) snapshot=88025415680
13/05/28 17:22:20 INFO mapred.JobClient:     Virtual memory (bytes) snapshot=746596470784
13/05/28 17:22:20 INFO mapred.JobClient:     Total committed heap usage (bytes)=83540967424
13/05/28 17:22:20 INFO mapred.JobClient:   SEQAL
13/05/28 17:22:20 INFO mapred.JobClient:     EMITTED SAM RECORDS=199999980
13/05/28 17:22:20 INFO mapred.JobClient:     READS PROCESSED=199999980
13/05/28 17:22:20 INFO mapred.JobClient:     TIME_ANALYZE_PAIRS (CAL_+SW+REFGAP+PROCESS)=88547578
13/05/28 17:22:20 INFO mapred.JobClient:     TIME_BUILD_BWSA=918671
13/05/28 17:22:20 INFO mapred.JobClient:     TIME_CAL_PAC_POS_PE=5868808
13/05/28 17:22:20 INFO mapred.JobClient:     TIME_CAL_SA_REG_GAP=43020402
13/05/28 17:22:20 INFO mapred.JobClient:     TIME_COUNT_BASES=938021
13/05/28 17:22:20 INFO mapred.JobClient:     TIME_DESTROY_SEQUENCES=63471
13/05/28 17:22:20 INFO mapred.JobClient:     TIME_PAIRED_SW=1200426
13/05/28 17:22:20 INFO mapred.JobClient:     TIME_REFINE_GAPPED=174547
13/05/28 17:22:20 INFO mapred.JobClient:     TIME_RESTORE_INDEX=86667
13/05/28 17:22:20 INFO mapred.JobClient:     TIME_RESTORE_REFERENCE=30383
13/05/28 17:22:20 INFO mapred.JobClient:     TOTAL BASES=20199997980
13/05/28 17:22:20 INFO mapred.JobClient:     TRIMMED BASES=0
13/05/28 17:22:20 INFO mapred.JobClient:   org.apache.hadoop.mapreduce.lib.input.FileInputFormatCounter
13/05/28 17:22:20 INFO mapred.JobClient:     BYTES_READ=45088884387
